xof 0303txt 0032
template XSkinMeshHeader {
 <3cf169ce-ff7c-44ab-93c0-f78f62d172e2>
 WORD nMaxSkinWeightsPerVertex;
 WORD nMaxSkinWeightsPerFace;
 WORD nBones;
}

template VertexDuplicationIndices {
 <b8d65549-d7c9-4995-89cf-53a9a8b031e3>
 DWORD nIndices;
 DWORD nOriginalVertices;
 array DWORD indices[nIndices];
}

template SkinWeights {
 <6f0d123b-bad2-4167-a0d0-80224f25fabb>
 STRING transformNodeName;
 DWORD nWeights;
 array DWORD vertexIndices[nWeights];
 array FLOAT weights[nWeights];
 Matrix4x4 matrixOffset;
}

template FVFData {
 <b6e70a0e-8ef9-4e83-94ad-ecc8b0c04897>
 DWORD dwFVF;
 DWORD nDWords;
 array DWORD data[nDWords];
}

template EffectInstance {
 <e331f7e4-0559-4cc2-8e99-1cec1657928f>
 STRING EffectFilename;
 [...]
}

template EffectParamFloats {
 <3014b9a0-62f5-478c-9b86-e4ac9f4e418b>
 STRING ParamName;
 DWORD nFloats;
 array FLOAT Floats[nFloats];
}

template EffectParamString {
 <1dbc4c88-94c1-46ee-9076-2c28818c9481>
 STRING ParamName;
 STRING Value;
}

template EffectParamDWord {
 <e13963bc-ae51-4c5d-b00f-cfa3a9d97ce5>
 STRING ParamName;
 DWORD Value;
}


Material skyscrapers {
 1.000000;1.000000;1.000000;1.000000;;
 3.200000;
 0.000000;0.000000;0.000000;;
 0.000000;0.000000;0.000000;;

 TextureFilename {
  "Skyscrp.tga";
 }
}

Material buildz1 {
 1.000000;1.000000;1.000000;1.000000;;
 3.200000;
 0.000000;0.000000;0.000000;;
 0.000000;0.000000;0.000000;;

 TextureFilename {
  "buildz1.tga";
 }
}

Material buildz3 {
 1.000000;1.000000;1.000000;1.000000;;
 3.200000;
 0.000000;0.000000;0.000000;;
 0.000000;0.000000;0.000000;;

 TextureFilename {
  "buildz3.tga";
 }
}

Material buildz4 {
 1.000000;1.000000;1.000000;1.000000;;
 3.200000;
 0.000000;0.000000;0.000000;;
 0.000000;0.000000;0.000000;;

 TextureFilename {
  "buildz4.tga";
 }
}

Material buildz5 {
 1.000000;1.000000;1.000000;1.000000;;
 3.200000;
 0.000000;0.000000;0.000000;;
 0.000000;0.000000;0.000000;;

 TextureFilename {
  "buildz5.tga";
 }
}

Material buildz6 {
 1.000000;1.000000;1.000000;1.000000;;
 3.200000;
 0.000000;0.000000;0.000000;;
 0.000000;0.000000;0.000000;;

 TextureFilename {
  "buildz6.tga";
 }
}

Material buildz2 {
 1.000000;1.000000;1.000000;1.000000;;
 3.200000;
 0.000000;0.000000;0.000000;;
 0.000000;0.000000;0.000000;;

 TextureFilename {
  "buildz2.tga";
 }
}

Material roads {
 1.000000;1.000000;1.000000;1.000000;;
 3.200000;
 0.000000;0.000000;0.000000;;
 0.000000;0.000000;0.000000;;

 TextureFilename {
  "roads.tga";
 }
}

Material roads-2 {
 1.000000;1.000000;1.000000;1.000000;;
 3.200000;
 0.000000;0.000000;0.000000;;
 0.000000;0.000000;0.000000;;

 TextureFilename {
  "roads2.tga";
 }
}

Material tree-01 {
 1.000000;1.000000;1.000000;1.000000;;
 3.200000;
 0.000000;0.000000;0.000000;;
 0.000000;0.000000;0.000000;;

 TextureFilename {
  "trees-02.tga";
 }
}

Frame building-commercial_05 {
 

 FrameTransformMatrix {
  1.000000,0.000000,0.000000,0.000000,0.000000,-0.000000,-1.000000,0.000000,0.000000,1.000000,-0.000000,0.000000,0.000000,-12.670539,12.491668,1.000000;;
 }

 Frame {
  

  FrameTransformMatrix {
   1.000000,0.000000,0.000000,0.000000,0.000000,1.000000,0.000000,0.000000,0.000000,0.000000,1.000000,0.000000,0.000000,-0.000000,0.000000,1.000000;;
  }

  Mesh  {
   666;
   -20.259661;-3.406155;4.268918;,
   -20.285126;-3.405448;0.004170;,
   -15.234138;-5.110687;0.004170;,
   -15.234138;-5.110687;0.004170;,
   -15.265051;-5.101754;4.268922;,
   -20.259661;-3.406155;4.268918;,
   -20.259661;0.360377;4.268918;,
   -20.285124;0.359669;0.004170;,
   -20.285126;-3.405448;0.004170;,
   -20.285126;-3.405448;0.004170;,
   -20.259661;-3.406155;4.268918;,
   -20.259661;0.360377;4.268918;,
   -18.695930;-6.014197;20.203684;,
   -15.569769;-6.351840;20.203684;,
   -15.569767;-1.547942;20.203684;,
   -15.569767;-1.547942;20.203684;,
   -21.057991;-4.044827;20.203684;,
   -18.695930;-6.014197;20.203684;,
   -18.695930;-6.014197;20.203684;,
   -18.695934;-5.993252;5.727970;,
   -15.569769;-6.317572;5.727970;,
   -15.569769;-6.317572;5.727970;,
   -15.569769;-6.351840;20.203684;,
   -18.695930;-6.014197;20.203684;,
   -21.724405;-1.522901;20.203684;,
   -21.724405;-1.522901;5.727970;,
   -21.057991;-4.044827;5.727970;,
   -21.057991;-4.044827;5.727970;,
   -21.057991;-4.044827;20.203684;,
   -21.724405;-1.522901;20.203684;,
   -18.695934;2.940571;5.727970;,
   -21.057991;0.999039;5.727970;,
   -21.057991;0.999039;20.203684;,
   -21.057991;0.999039;20.203684;,
   -18.695934;2.940571;20.203684;,
   -18.695934;2.940571;5.727970;,
   -15.569769;-6.317572;5.727970;,
   -14.140608;-3.754095;5.716970;,
   -14.140608;-3.789176;19.271063;,
   -14.140608;-3.789176;19.271063;,
   -15.569769;-6.351840;20.203684;,
   -15.569769;-6.317572;5.727970;,
   -18.695934;-5.993252;5.727970;,
   -21.057991;-4.044827;5.727970;,
   -20.259661;-3.406155;4.268918;,
   -18.695934;-5.993252;5.727970;,
   -20.259661;-3.406155;4.268918;,
   -15.265051;-5.101754;4.268922;,
   -15.569769;-6.317572;5.727970;,
   -18.695934;-5.993252;5.727970;,
   -15.265051;-5.101754;4.268922;,
   -21.724405;-1.522901;5.727970;,
   -21.057991;0.999039;5.727970;,
   -20.259661;0.360377;4.268918;,
   -21.724405;-1.522901;5.727970;,
   -20.259661;0.360377;4.268918;,
   -20.259661;-3.406155;4.268918;,
   -21.057991;-4.044827;5.727970;,
   -21.724405;-1.522901;5.727970;,
   -20.259661;-3.406155;4.268918;,
   -18.695934;2.940571;5.727970;,
   -15.569767;3.255956;5.727970;,
   -15.265051;2.073801;4.268922;,
   -18.695934;2.940571;5.727970;,
   -15.265051;2.073801;4.268922;,
   -20.259661;0.360377;4.268918;,
   -21.057991;0.999039;5.727970;,
   -18.695934;2.940571;5.727970;,
   -20.259661;0.360377;4.268918;,
   -14.140608;-3.754095;5.716970;,
   -15.569769;-6.317572;5.727970;,
   -15.265051;-5.101754;4.268922;,
   -15.569767;3.255956;5.727970;,
   -14.143729;0.757705;5.718408;,
   -15.265051;2.073801;4.268922;,
   -18.695934;2.940571;20.203684;,
   -15.569767;-1.547942;20.203684;,
   -15.569767;3.255956;20.203684;,
   -15.569767;-1.547942;20.203684;,
   -21.724405;-1.522901;20.203684;,
   -21.057991;-4.044827;20.203684;,
   -21.057991;0.999039;20.203684;,
   -15.569767;-1.547942;20.203684;,
   -18.695934;2.940571;20.203684;,
   -21.724405;-1.522901;20.203684;,
   -15.569767;-1.547942;20.203684;,
   -21.057991;0.999039;20.203684;,
   -14.140608;-3.789176;19.271063;,
   -15.569767;-1.547942;20.203684;,
   -15.569769;-6.351840;20.203684;,
   -15.569767;-1.547942;20.203684;,
   -14.140608;-3.789176;19.271063;,
   -14.148958;0.750260;19.273865;,
   -15.569767;3.255956;20.203684;,
   -15.569767;-1.547942;20.203684;,
   -14.148958;0.750260;19.273865;,
   -4.722123;1.820948;5.719895;,
   -14.140608;-3.754095;5.716970;,
   -14.177958;-3.702539;-0.000000;,
   -14.177958;-3.702539;-0.000000;,
   -4.738816;1.867945;-0.000000;,
   -4.722123;1.820948;5.719895;,
   -14.177958;-3.702539;-0.000000;,
   -14.140608;-3.754095;5.716970;,
   -15.265051;-5.101754;4.268922;,
   -15.265051;-5.101754;4.268922;,
   -15.234138;-5.110687;0.004170;,
   -14.177958;-3.702539;-0.000000;,
   -15.234138;2.082734;0.004170;,
   -20.285124;0.359669;0.004170;,
   -20.259661;0.360377;4.268918;,
   -20.259661;0.360377;4.268918;,
   -15.265051;2.073801;4.268922;,
   -15.234138;2.082734;0.004170;,
   -14.177958;0.674586;-0.000000;,
   -14.143729;0.757705;5.718408;,
   -4.722124;6.314131;5.720128;,
   -4.722124;6.314131;5.720128;,
   -4.738816;6.245070;-0.000000;,
   -14.177958;0.674586;-0.000000;,
   -15.265051;2.073801;4.268922;,
   -14.143729;0.757705;5.718408;,
   -14.177958;0.674586;-0.000000;,
   -14.177958;0.674586;-0.000000;,
   -15.234138;2.082734;0.004170;,
   -15.265051;2.073801;4.268922;,
   4.701626;1.820949;5.719895;,
   -4.722123;1.820948;5.719895;,
   -4.738816;1.867945;-0.000000;,
   -4.738816;1.867945;-0.000000;,
   4.705657;1.867946;-0.000000;,
   4.701626;1.820949;5.719895;,
   -4.738816;6.245070;-0.000000;,
   -4.722124;6.314131;5.720128;,
   4.702670;6.315181;5.720128;,
   4.702670;6.315181;5.720128;,
   4.705657;6.245070;-0.000000;,
   -4.738816;6.245070;-0.000000;,
   14.164054;-3.702538;-0.000000;,
   14.134037;-3.752974;5.716987;,
   4.701626;1.820949;5.719895;,
   4.701626;1.820949;5.719895;,
   4.705657;1.867946;-0.000000;,
   14.164054;-3.702538;-0.000000;,
   4.702670;6.315181;5.720128;,
   14.136963;0.758619;5.717928;,
   14.164054;0.674587;-0.000000;,
   14.164054;0.674587;-0.000000;,
   4.705657;6.245070;-0.000000;,
   4.702670;6.315181;5.720128;,
   -14.140608;-3.789176;19.271063;,
   -14.140608;-3.787081;16.698416;,
   -4.720233;1.783402;16.698408;,
   -4.720233;1.783402;16.698408;,
   -4.720128;1.781308;19.296240;,
   -14.140608;-3.789176;19.271063;,
   -4.720130;6.326196;19.299976;,
   -4.720235;6.324001;16.700277;,
   -14.151367;0.753232;16.700277;,
   -14.151367;0.753232;16.700277;,
   -14.148958;0.750260;19.273865;,
   -4.720130;6.326196;19.299976;,
   -14.140608;-3.789176;19.271063;,
   -4.720128;1.781308;19.296240;,
   -4.720130;6.326196;19.299976;,
   -4.720130;6.326196;19.299976;,
   -14.148958;0.750260;19.273865;,
   -14.140608;-3.789176;19.271063;,
   -4.720128;1.781308;19.296240;,
   -4.720233;1.783402;16.698408;,
   4.704674;1.783403;16.698408;,
   4.704674;1.783403;16.698408;,
   4.704725;1.781308;19.296240;,
   -4.720128;1.781308;19.296240;,
   4.710295;6.326196;19.299976;,
   4.710051;6.324144;16.700277;,
   -4.720235;6.324001;16.700277;,
   -4.720235;6.324001;16.700277;,
   -4.720130;6.326196;19.299976;,
   4.710295;6.326196;19.299976;,
   -4.720128;1.781308;19.296240;,
   4.704725;1.781308;19.296240;,
   4.710295;6.326196;19.299976;,
   4.710295;6.326196;19.299976;,
   -4.720130;6.326196;19.299976;,
   -4.720128;1.781308;19.296240;,
   -14.140608;-3.762804;13.725417;,
   -14.140608;-3.745113;8.131500;,
   -4.722346;1.825371;8.131500;,
   -4.722346;1.825371;8.131500;,
   -4.721455;1.807680;13.725417;,
   -14.140608;-3.762804;13.725417;,
   -4.721455;1.807680;13.725417;,
   -4.722346;1.825371;8.131500;,
   4.703615;1.825371;8.131500;,
   4.703615;1.825371;8.131500;,
   4.704060;1.807681;13.725417;,
   -4.721455;1.807680;13.725417;,
   -4.720235;6.324001;16.700277;,
   -4.720233;1.783402;16.698408;,
   -14.140608;-3.787081;16.698416;,
   -14.140608;-3.787081;16.698416;,
   -14.151367;0.753232;16.700277;,
   -4.720235;6.324001;16.700277;,
   4.710051;6.324144;16.700277;,
   4.704674;1.783403;16.698408;,
   -4.720233;1.783402;16.698408;,
   -4.720233;1.783402;16.698408;,
   -4.720235;6.324001;16.700277;,
   4.710051;6.324144;16.700277;,
   -4.722348;6.351851;8.132430;,
   -14.143392;0.781368;8.132430;,
   -14.146176;0.769813;13.727278;,
   -14.146176;0.769813;13.727278;,
   -4.721457;6.340297;13.727278;,
   -4.722348;6.351851;8.132430;,
   4.705006;6.351852;8.132430;,
   -4.722348;6.351851;8.132430;,
   -4.721457;6.340297;13.727278;,
   -4.721457;6.340297;13.727278;,
   4.706844;6.340297;13.727278;,
   4.705006;6.351852;8.132430;,
   -14.140608;-3.762804;13.725417;,
   -4.721455;1.807680;13.725417;,
   -4.721457;6.340297;13.727278;,
   -4.721457;6.340297;13.727278;,
   -14.146176;0.769813;13.727278;,
   -14.140608;-3.762804;13.725417;,
   -4.721455;1.807680;13.725417;,
   4.704060;1.807681;13.725417;,
   4.706844;6.340297;13.727278;,
   4.706844;6.340297;13.727278;,
   -4.721457;6.340297;13.727278;,
   -4.721455;1.807680;13.725417;,
   -4.722348;6.351851;8.132430;,
   -4.722346;1.825371;8.131500;,
   -14.140608;-3.745113;8.131500;,
   -14.140608;-3.745113;8.131500;,
   -14.143392;0.781368;8.132430;,
   -4.722348;6.351851;8.132430;,
   4.705006;6.351852;8.132430;,
   4.703615;1.825371;8.131500;,
   -4.722346;1.825371;8.131500;,
   -4.722346;1.825371;8.131500;,
   -4.722348;6.351851;8.132430;,
   4.705006;6.351852;8.132430;,
   4.704674;1.783403;16.698408;,
   14.129580;-3.787080;16.698416;,
   14.130906;-3.789175;19.271063;,
   14.130906;-3.789175;19.271063;,
   4.704725;1.781308;19.296240;,
   4.704674;1.783403;16.698408;,
   14.140336;0.753234;16.700277;,
   4.710051;6.324144;16.700277;,
   4.710295;6.326196;19.299976;,
   4.710295;6.326196;19.299976;,
   14.139257;0.750261;19.273865;,
   14.140336;0.753234;16.700277;,
   4.710295;6.326196;19.299976;,
   4.704725;1.781308;19.296240;,
   14.130906;-3.789175;19.271063;,
   14.130906;-3.789175;19.271063;,
   14.139257;0.750261;19.273865;,
   4.710295;6.326196;19.299976;,
   4.703615;1.825371;8.131500;,
   14.129580;-3.745112;8.131500;,
   14.129580;-3.762802;13.725417;,
   14.129580;-3.762802;13.725417;,
   4.704060;1.807681;13.725417;,
   4.703615;1.825371;8.131500;,
   14.129580;-3.787080;16.698416;,
   4.704674;1.783403;16.698408;,
   4.710051;6.324144;16.700277;,
   4.710051;6.324144;16.700277;,
   14.140336;0.753234;16.700277;,
   14.129580;-3.787080;16.698416;,
   14.135147;0.769814;13.727278;,
   14.132364;0.781369;8.132430;,
   4.705006;6.351852;8.132430;,
   4.705006;6.351852;8.132430;,
   4.706844;6.340297;13.727278;,
   14.135147;0.769814;13.727278;,
   4.706844;6.340297;13.727278;,
   4.704060;1.807681;13.725417;,
   14.129580;-3.762802;13.725417;,
   14.129580;-3.762802;13.725417;,
   14.135147;0.769814;13.727278;,
   4.706844;6.340297;13.727278;,
   14.129580;-3.745112;8.131500;,
   4.703615;1.825371;8.131500;,
   4.705006;6.351852;8.132430;,
   4.705006;6.351852;8.132430;,
   14.132364;0.781369;8.132430;,
   14.129580;-3.745112;8.131500;,
   -14.140608;-3.754095;5.716970;,
   -4.722123;1.820948;5.719895;,
   -4.722124;6.314131;5.720128;,
   -4.722124;6.314131;5.720128;,
   -14.143729;0.757705;5.718408;,
   -14.140608;-3.754095;5.716970;,
   -4.722123;1.820948;5.719895;,
   4.701626;1.820949;5.719895;,
   4.702670;6.315181;5.720128;,
   4.702670;6.315181;5.720128;,
   -4.722124;6.314131;5.720128;,
   -4.722123;1.820948;5.719895;,
   4.702670;6.315181;5.720128;,
   4.701626;1.820949;5.719895;,
   14.134037;-3.752974;5.716987;,
   14.134037;-3.752974;5.716987;,
   14.136963;0.758619;5.717928;,
   4.702670;6.315181;5.720128;,
   -3.043346;5.952719;5.731457;,
   -6.635557;5.161266;5.731457;,
   -6.635435;5.149905;8.155648;,
   -6.635435;5.149905;8.155648;,
   -3.043258;5.941358;8.155648;,
   -3.043346;5.952719;5.731457;,
   -6.635557;5.161266;5.731457;,
   -5.456130;2.221243;5.731455;,
   -5.456028;2.207501;8.154840;,
   -5.456028;2.207501;8.154840;,
   -6.635435;5.149905;8.155648;,
   -6.635557;5.161266;5.731457;,
   6.739129;5.161267;5.731455;,
   3.146972;5.952720;5.731457;,
   3.147045;5.941358;8.155648;,
   3.147045;5.941358;8.155648;,
   6.739282;5.149905;8.155648;,
   6.739129;5.161267;5.731455;,
   3.146972;5.952720;5.731457;,
   4.457748;2.871849;5.731455;,
   4.457848;2.858106;8.154840;,
   4.457848;2.858106;8.154840;,
   3.147045;5.941358;8.155648;,
   3.146972;5.952720;5.731457;,
   -5.456028;1.920162;16.823668;,
   -5.456133;1.932288;13.700194;,
   -4.355076;2.688782;13.700194;,
   -4.355076;2.688782;13.700194;,
   -4.355024;2.676657;16.823668;,
   -5.456028;1.920162;16.823668;,
   -3.043352;5.878447;13.700891;,
   -6.635562;5.203629;13.700891;,
   -6.635435;5.193606;16.824635;,
   -6.635435;5.193606;16.824635;,
   -3.043258;5.868424;16.824635;,
   -3.043352;5.878447;13.700891;,
   -4.355024;2.676657;16.823668;,
   -4.355076;2.688782;13.700194;,
   -3.043352;5.878447;13.700891;,
   -3.043352;5.878447;13.700891;,
   -3.043258;5.868424;16.824635;,
   -4.355024;2.676657;16.823668;,
   -5.456133;1.932288;13.700194;,
   -5.456028;1.920162;16.823668;,
   -6.635435;5.193606;16.824635;,
   -6.635435;5.193606;16.824635;,
   -6.635562;5.203629;13.700891;,
   -5.456133;1.932288;13.700194;,
   4.457848;2.676658;16.823668;,
   4.457742;2.688783;13.700194;,
   5.558800;1.932288;13.700194;,
   5.558800;1.932288;13.700194;,
   5.558852;1.920163;16.823668;,
   4.457848;2.676658;16.823668;,
   6.739120;5.203629;13.700891;,
   3.146971;5.878447;13.700891;,
   3.147045;5.868424;16.824635;,
   3.147045;5.868424;16.824635;,
   6.739282;5.193606;16.824635;,
   6.739120;5.203629;13.700891;,
   5.558852;1.920163;16.823668;,
   5.558800;1.932288;13.700194;,
   6.739120;5.203629;13.700891;,
   6.739120;5.203629;13.700891;,
   6.739282;5.193606;16.824635;,
   5.558852;1.920163;16.823668;,
   4.457742;2.688783;13.700194;,
   4.457848;2.676658;16.823668;,
   3.147045;5.868424;16.824635;,
   3.147045;5.868424;16.824635;,
   3.146971;5.878447;13.700891;,
   4.457742;2.688783;13.700194;,
   -5.456028;2.306934;22.372044;,
   -5.456133;2.319060;19.248571;,
   -3.879609;2.309956;19.248571;,
   -3.879609;2.309956;19.248571;,
   -3.879563;2.297831;22.372044;,
   -5.456028;2.306934;22.372044;,
   -2.645638;5.878447;19.249268;,
   -6.659556;5.203629;19.249268;,
   -6.659428;5.193606;22.373011;,
   -6.659428;5.193606;22.373011;,
   -2.645557;5.868424;22.373011;,
   -2.645638;5.878447;19.249268;,
   -3.879563;2.297831;22.372044;,
   -3.879609;2.309956;19.248571;,
   -2.645638;5.878447;19.249268;,
   -2.645638;5.878447;19.249268;,
   -2.645557;5.868424;22.373011;,
   -3.879563;2.297831;22.372044;,
   -5.456133;2.319060;19.248571;,
   -5.456028;2.306934;22.372044;,
   -6.659428;5.193606;22.373011;,
   -6.659428;5.193606;22.373011;,
   -6.659556;5.203629;19.249268;,
   -5.456133;2.319060;19.248571;,
   3.982566;2.297831;22.372044;,
   3.982472;2.309956;19.248571;,
   5.558800;2.319060;19.248571;,
   5.558800;2.319060;19.248571;,
   5.558852;2.306935;22.372044;,
   3.982566;2.297831;22.372044;,
   6.763113;5.203629;19.249268;,
   2.749086;5.878447;19.249268;,
   2.749151;5.868424;22.373011;,
   2.749151;5.868424;22.373011;,
   6.763276;5.193606;22.373011;,
   6.763113;5.203629;19.249268;,
   5.558852;2.306935;22.372044;,
   5.558800;2.319060;19.248571;,
   6.763113;5.203629;19.249268;,
   6.763113;5.203629;19.249268;,
   6.763276;5.193606;22.373011;,
   5.558852;2.306935;22.372044;,
   3.982472;2.309956;19.248571;,
   3.982566;2.297831;22.372044;,
   2.749151;5.868424;22.373011;,
   2.749151;5.868424;22.373011;,
   2.749086;5.878447;19.249268;,
   3.982472;2.309956;19.248571;,
   -6.302826;1.782355;26.814247;,
   -6.302896;1.783402;22.288364;,
   6.286234;1.783403;22.288364;,
   6.286234;1.783403;22.288364;,
   6.286269;1.782356;26.814247;,
   -6.302826;1.782355;26.814247;,
   7.905525;6.325170;26.817047;,
   7.905322;6.324145;22.290234;,
   -7.914874;6.324001;22.290234;,
   -7.914874;6.324001;22.290234;,
   -7.914785;6.325099;26.817047;,
   7.905525;6.325170;26.817047;,
   -6.302826;1.782355;26.814247;,
   6.286269;1.782356;26.814247;,
   7.905525;6.325170;26.817047;,
   7.905525;6.325170;26.817047;,
   -7.914785;6.325099;26.817047;,
   -6.302826;1.782355;26.814247;,
   7.905322;6.324145;22.290234;,
   6.286234;1.783403;22.288364;,
   -6.302896;1.783402;22.288364;,
   -6.302896;1.783402;22.288364;,
   -7.914874;6.324001;22.290234;,
   7.905322;6.324145;22.290234;,
   -7.914874;6.324001;22.290234;,
   -6.302896;1.783402;22.288364;,
   -6.302826;1.782355;26.814247;,
   -6.302826;1.782355;26.814247;,
   -7.914785;6.325099;26.817047;,
   -7.914874;6.324001;22.290234;,
   6.286234;1.783403;22.288364;,
   7.905322;6.324145;22.290234;,
   7.905525;6.325170;26.817047;,
   7.905525;6.325170;26.817047;,
   6.286269;1.782356;26.814247;,
   6.286234;1.783403;22.288364;,
   15.234162;-5.110685;0.004170;,
   20.285149;-3.405447;0.004170;,
   20.259684;-3.406153;4.268918;,
   20.259684;-3.406153;4.268918;,
   15.265078;-5.101752;4.268922;,
   15.234162;-5.110685;0.004170;,
   20.285149;-3.405447;0.004170;,
   20.285149;0.359671;0.004170;,
   20.259684;0.360379;4.268918;,
   20.259684;0.360379;4.268918;,
   20.259684;-3.406153;4.268918;,
   20.285149;-3.405447;0.004170;,
   15.569794;-6.351838;20.203684;,
   18.695955;-6.014195;20.203684;,
   15.569794;-1.547940;20.203684;,
   21.058018;-4.044825;20.203684;,
   15.569794;-1.547940;20.203684;,
   18.695955;-6.014195;20.203684;,
   15.569794;-6.351838;20.203684;,
   15.569794;-6.317570;5.727970;,
   18.695955;-5.993250;5.727970;,
   18.695955;-5.993250;5.727970;,
   18.695955;-6.014195;20.203684;,
   15.569794;-6.351838;20.203684;,
   18.695955;-5.993250;5.727970;,
   21.058018;-4.044825;5.727970;,
   21.058018;-4.044825;20.203684;,
   21.058018;-4.044825;20.203684;,
   18.695955;-6.014195;20.203684;,
   18.695955;-5.993250;5.727970;,
   21.058018;-4.044825;20.203684;,
   21.058018;-4.044825;5.727970;,
   21.724428;-1.522899;5.727970;,
   21.724428;-1.522899;5.727970;,
   21.724428;-1.522899;20.203684;,
   21.058018;-4.044825;20.203684;,
   21.724428;-1.522899;5.727970;,
   21.058018;0.999041;5.727970;,
   21.058018;0.999041;20.203684;,
   21.058018;0.999041;20.203684;,
   21.724428;-1.522899;20.203684;,
   21.724428;-1.522899;5.727970;,
   18.695955;2.940573;5.727970;,
   15.569793;3.255958;5.727970;,
   15.569793;3.255958;20.203684;,
   15.569793;3.255958;20.203684;,
   18.695959;2.940573;20.203684;,
   18.695955;2.940573;5.727970;,
   18.695955;-5.993250;5.727970;,
   15.569794;-6.317570;5.727970;,
   15.265078;-5.101752;4.268922;,
   18.695955;-5.993250;5.727970;,
   15.265078;-5.101752;4.268922;,
   20.259684;-3.406153;4.268918;,
   18.695955;-5.993250;5.727970;,
   20.259684;-3.406153;4.268918;,
   21.058018;-4.044825;5.727970;,
   21.724428;-1.522899;5.727970;,
   21.058018;-4.044825;5.727970;,
   20.259684;-3.406153;4.268918;,
   21.724428;-1.522899;5.727970;,
   20.259684;-3.406153;4.268918;,
   20.259684;0.360379;4.268918;,
   21.724428;-1.522899;5.727970;,
   20.259684;0.360379;4.268918;,
   21.058018;0.999041;5.727970;,
   18.695955;2.940573;5.727970;,
   21.058018;0.999041;5.727970;,
   20.259684;0.360379;4.268918;,
   18.695955;2.940573;5.727970;,
   20.259684;0.360379;4.268918;,
   15.265077;2.073802;4.268922;,
   18.695955;2.940573;5.727970;,
   15.265077;2.073802;4.268922;,
   15.569793;3.255958;5.727970;,
   15.569794;-6.317570;5.727970;,
   14.134037;-3.752974;5.716987;,
   15.265078;-5.101752;4.268922;,
   14.136963;0.758619;5.717928;,
   15.569793;3.255958;5.727970;,
   15.265077;2.073802;4.268922;,
   15.569794;-1.547940;20.203684;,
   18.695959;2.940573;20.203684;,
   15.569793;3.255958;20.203684;,
   21.724428;-1.522899;20.203684;,
   15.569794;-1.547940;20.203684;,
   21.058018;-4.044825;20.203684;,
   15.569794;-1.547940;20.203684;,
   21.058018;0.999041;20.203684;,
   18.695959;2.940573;20.203684;,
   15.569794;-1.547940;20.203684;,
   21.724428;-1.522899;20.203684;,
   21.058018;0.999041;20.203684;,
   15.569794;-1.547940;20.203684;,
   14.130906;-3.789175;19.271063;,
   15.569794;-6.351838;20.203684;,
   14.130906;-3.789175;19.271063;,
   15.569794;-1.547940;20.203684;,
   14.139257;0.750261;19.273865;,
   15.569794;-1.547940;20.203684;,
   15.569793;3.255958;20.203684;,
   14.139257;0.750261;19.273865;,
   15.265078;-5.101752;4.268922;,
   14.134037;-3.752974;5.716987;,
   14.164054;-3.702538;-0.000000;,
   14.164054;-3.702538;-0.000000;,
   15.234162;-5.110685;0.004170;,
   15.265078;-5.101752;4.268922;,
   20.259684;0.360379;4.268918;,
   20.285149;0.359671;0.004170;,
   15.234161;2.082736;0.004170;,
   15.234161;2.082736;0.004170;,
   15.265077;2.073802;4.268922;,
   20.259684;0.360379;4.268918;,
   14.164054;0.674587;-0.000000;,
   14.136963;0.758619;5.717928;,
   15.265077;2.073802;4.268922;,
   15.265077;2.073802;4.268922;,
   15.234161;2.082736;0.004170;,
   14.164054;0.674587;-0.000000;,
   14.071632;0.754456;5.731532;,
   14.065748;-3.767504;5.731625;,
   14.065748;-3.789175;19.271063;,
   14.065748;-3.789175;19.271063;,
   14.074100;0.750261;19.273865;,
   14.071632;0.754456;5.731532;,
   -18.695930;-6.014197;20.203684;,
   -21.057991;-4.044827;20.203684;,
   -21.057991;-4.044827;5.727970;,
   -21.057991;-4.044827;5.727970;,
   -18.695934;-5.993252;5.727970;,
   -18.695930;-6.014197;20.203684;,
   -21.724405;-1.522901;20.203684;,
   -21.057991;0.999039;20.203684;,
   -21.057991;0.999039;5.727970;,
   -21.057991;0.999039;5.727970;,
   -21.724405;-1.522901;5.727970;,
   -21.724405;-1.522901;20.203684;,
   -18.695934;2.940571;20.203684;,
   -15.569767;3.255956;20.203684;,
   -15.569767;3.255956;5.727970;,
   -15.569767;3.255956;5.727970;,
   -18.695934;2.940571;5.727970;,
   -18.695934;2.940571;20.203684;,
   -14.148958;0.750260;19.273865;,
   -14.140608;-3.789176;19.271063;,
   -14.140608;-3.754095;5.716970;,
   -14.140608;-3.754095;5.716970;,
   -14.143729;0.757705;5.718408;,
   -14.148958;0.750260;19.273865;,
   -4.355024;2.858106;8.154840;,
   -5.456028;2.207501;8.154840;,
   -5.456130;2.221243;5.731455;,
   -5.456130;2.221243;5.731455;,
   -4.355075;2.871849;5.731455;,
   -4.355024;2.858106;8.154840;,
   -3.043258;5.941358;8.155648;,
   -4.355024;2.858106;8.154840;,
   -4.355075;2.871849;5.731455;,
   -4.355075;2.871849;5.731455;,
   -3.043346;5.952719;5.731457;,
   -3.043258;5.941358;8.155648;,
   5.558852;2.207501;8.154840;,
   4.457848;2.858106;8.154840;,
   4.457748;2.871849;5.731455;,
   4.457748;2.871849;5.731455;,
   5.558804;2.221245;5.731455;,
   5.558852;2.207501;8.154840;,
   6.739282;5.149905;8.155648;,
   5.558852;2.207501;8.154840;,
   5.558804;2.221245;5.731455;,
   5.558804;2.221245;5.731455;,
   6.739129;5.161267;5.731455;,
   6.739282;5.149905;8.155648;,
   -15.569767;3.255956;5.727970;,
   -15.569767;3.255956;20.203684;,
   -14.148958;0.750260;19.273865;,
   -14.148958;0.750260;19.273865;,
   -14.143729;0.757705;5.718408;,
   -15.569767;3.255956;5.727970;,
   18.695959;2.940573;20.203684;,
   21.058018;0.999041;20.203684;,
   21.058018;0.999041;5.727970;,
   21.058018;0.999041;5.727970;,
   18.695955;2.940573;5.727970;,
   18.695959;2.940573;20.203684;,
   15.569794;-6.317570;5.727970;,
   15.569794;-6.351838;20.203684;,
   14.130906;-3.789175;19.271063;,
   14.130906;-3.789175;19.271063;,
   14.134037;-3.752974;5.716987;,
   15.569794;-6.317570;5.727970;,
   14.139257;0.750261;19.273865;,
   15.569793;3.255958;20.203684;,
   15.569793;3.255958;5.727970;,
   15.569793;3.255958;5.727970;,
   14.136963;0.758619;5.717928;,
   14.139257;0.750261;19.273865;;
   222;
   3;0,1,2;,
   3;3,4,5;,
   3;6,7,8;,
   3;9,10,11;,
   3;12,13,14;,
   3;15,16,17;,
   3;18,19,20;,
   3;21,22,23;,
   3;24,25,26;,
   3;27,28,29;,
   3;30,31,32;,
   3;33,34,35;,
   3;36,37,38;,
   3;39,40,41;,
   3;42,43,44;,
   3;45,46,47;,
   3;48,49,50;,
   3;51,52,53;,
   3;54,55,56;,
   3;57,58,59;,
   3;60,61,62;,
   3;63,64,65;,
   3;66,67,68;,
   3;69,70,71;,
   3;72,73,74;,
   3;75,76,77;,
   3;78,79,80;,
   3;81,82,83;,
   3;84,85,86;,
   3;87,88,89;,
   3;90,91,92;,
   3;93,94,95;,
   3;96,97,98;,
   3;99,100,101;,
   3;102,103,104;,
   3;105,106,107;,
   3;108,109,110;,
   3;111,112,113;,
   3;114,115,116;,
   3;117,118,119;,
   3;120,121,122;,
   3;123,124,125;,
   3;126,127,128;,
   3;129,130,131;,
   3;132,133,134;,
   3;135,136,137;,
   3;138,139,140;,
   3;141,142,143;,
   3;144,145,146;,
   3;147,148,149;,
   3;150,151,152;,
   3;153,154,155;,
   3;156,157,158;,
   3;159,160,161;,
   3;162,163,164;,
   3;165,166,167;,
   3;168,169,170;,
   3;171,172,173;,
   3;174,175,176;,
   3;177,178,179;,
   3;180,181,182;,
   3;183,184,185;,
   3;186,187,188;,
   3;189,190,191;,
   3;192,193,194;,
   3;195,196,197;,
   3;198,199,200;,
   3;201,202,203;,
   3;204,205,206;,
   3;207,208,209;,
   3;210,211,212;,
   3;213,214,215;,
   3;216,217,218;,
   3;219,220,221;,
   3;222,223,224;,
   3;225,226,227;,
   3;228,229,230;,
   3;231,232,233;,
   3;234,235,236;,
   3;237,238,239;,
   3;240,241,242;,
   3;243,244,245;,
   3;246,247,248;,
   3;249,250,251;,
   3;252,253,254;,
   3;255,256,257;,
   3;258,259,260;,
   3;261,262,263;,
   3;264,265,266;,
   3;267,268,269;,
   3;270,271,272;,
   3;273,274,275;,
   3;276,277,278;,
   3;279,280,281;,
   3;282,283,284;,
   3;285,286,287;,
   3;288,289,290;,
   3;291,292,293;,
   3;294,295,296;,
   3;297,298,299;,
   3;300,301,302;,
   3;303,304,305;,
   3;306,307,308;,
   3;309,310,311;,
   3;312,313,314;,
   3;315,316,317;,
   3;318,319,320;,
   3;321,322,323;,
   3;324,325,326;,
   3;327,328,329;,
   3;330,331,332;,
   3;333,334,335;,
   3;336,337,338;,
   3;339,340,341;,
   3;342,343,344;,
   3;345,346,347;,
   3;348,349,350;,
   3;351,352,353;,
   3;354,355,356;,
   3;357,358,359;,
   3;360,361,362;,
   3;363,364,365;,
   3;366,367,368;,
   3;369,370,371;,
   3;372,373,374;,
   3;375,376,377;,
   3;378,379,380;,
   3;381,382,383;,
   3;384,385,386;,
   3;387,388,389;,
   3;390,391,392;,
   3;393,394,395;,
   3;396,397,398;,
   3;399,400,401;,
   3;402,403,404;,
   3;405,406,407;,
   3;408,409,410;,
   3;411,412,413;,
   3;414,415,416;,
   3;417,418,419;,
   3;420,421,422;,
   3;423,424,425;,
   3;426,427,428;,
   3;429,430,431;,
   3;432,433,434;,
   3;435,436,437;,
   3;438,439,440;,
   3;441,442,443;,
   3;444,445,446;,
   3;447,448,449;,
   3;450,451,452;,
   3;453,454,455;,
   3;456,457,458;,
   3;459,460,461;,
   3;462,463,464;,
   3;465,466,467;,
   3;468,469,470;,
   3;471,472,473;,
   3;474,475,476;,
   3;477,478,479;,
   3;480,481,482;,
   3;483,484,485;,
   3;486,487,488;,
   3;489,490,491;,
   3;492,493,494;,
   3;495,496,497;,
   3;498,499,500;,
   3;501,502,503;,
   3;504,505,506;,
   3;507,508,509;,
   3;510,511,512;,
   3;513,514,515;,
   3;516,517,518;,
   3;519,520,521;,
   3;522,523,524;,
   3;525,526,527;,
   3;528,529,530;,
   3;531,532,533;,
   3;534,535,536;,
   3;537,538,539;,
   3;540,541,542;,
   3;543,544,545;,
   3;546,547,548;,
   3;549,550,551;,
   3;552,553,554;,
   3;555,556,557;,
   3;558,559,560;,
   3;561,562,563;,
   3;564,565,566;,
   3;567,568,569;,
   3;570,571,572;,
   3;573,574,575;,
   3;576,577,578;,
   3;579,580,581;,
   3;582,583,584;,
   3;585,586,587;,
   3;588,589,590;,
   3;591,592,593;,
   3;594,595,596;,
   3;597,598,599;,
   3;600,601,602;,
   3;603,604,605;,
   3;606,607,608;,
   3;609,610,611;,
   3;612,613,614;,
   3;615,616,617;,
   3;618,619,620;,
   3;621,622,623;,
   3;624,625,626;,
   3;627,628,629;,
   3;630,631,632;,
   3;633,634,635;,
   3;636,637,638;,
   3;639,640,641;,
   3;642,643,644;,
   3;645,646,647;,
   3;648,649,650;,
   3;651,652,653;,
   3;654,655,656;,
   3;657,658,659;,
   3;660,661,662;,
   3;663,664,665;;

   MeshNormals  {
    666;
    -0.320554;-0.947230;0.000851;,
    -0.319867;-0.947461;0.001753;,
    -0.320774;-0.947156;0.000563;,
    -0.320774;-0.947156;0.000563;,
    -0.321466;-0.946921;-0.000347;,
    -0.320554;-0.947230;0.000851;,
    -0.999982;0.000000;0.005971;,
    -0.999982;0.000001;0.005970;,
    -0.999982;0.000000;0.005971;,
    -0.999982;0.000000;0.005971;,
    -0.999982;0.000000;0.005971;,
    -0.999982;0.000000;0.005971;,
    0.000000;0.000000;1.000000;,
    0.162038;-0.000000;0.986784;,
    0.285387;0.000151;0.958412;,
    0.285387;0.000151;0.958412;,
    0.000000;0.000000;1.000000;,
    0.000000;0.000000;1.000000;,
    -0.389922;-0.920847;-0.001242;,
    -0.348366;-0.857224;-0.379221;,
    -0.096739;-0.929601;-0.355646;,
    -0.096739;-0.929601;-0.355646;,
    -0.107381;-0.994215;-0.002354;,
    -0.389922;-0.920847;-0.001242;,
    -1.000000;-0.000001;0.000000;,
    -0.946165;-0.000001;-0.323685;,
    -0.805121;-0.520380;-0.284580;,
    -0.805121;-0.520380;-0.284580;,
    -0.843475;-0.537169;0.000000;,
    -1.000000;-0.000001;0.000000;,
    -0.347646;0.858589;-0.376786;,
    -0.804643;0.521262;-0.284315;,
    -0.841592;0.540114;0.000000;,
    -0.841592;0.540114;0.000000;,
    -0.384133;0.923278;0.000000;,
    -0.347646;0.858589;-0.376786;,
    0.870470;-0.485688;-0.079932;,
    0.846752;-0.529301;-0.053394;,
    0.873215;-0.487335;-0.001166;,
    0.873215;-0.487335;-0.001166;,
    0.873187;-0.487384;-0.001154;,
    0.870470;-0.485688;-0.079932;,
    -0.348366;-0.857224;-0.379221;,
    -0.805121;-0.520380;-0.284580;,
    -0.619034;-0.389978;-0.681699;,
    -0.348366;-0.857224;-0.379221;,
    -0.619034;-0.389978;-0.681699;,
    -0.127523;-0.684288;-0.717974;,
    -0.096739;-0.929601;-0.355646;,
    -0.348366;-0.857224;-0.379221;,
    -0.127523;-0.684288;-0.717974;,
    -0.946165;-0.000001;-0.323685;,
    -0.804643;0.521262;-0.284315;,
    -0.619541;0.390492;-0.680945;,
    -0.946165;-0.000001;-0.323685;,
    -0.619541;0.390492;-0.680945;,
    -0.619034;-0.389978;-0.681699;,
    -0.805121;-0.520380;-0.284580;,
    -0.946165;-0.000001;-0.323685;,
    -0.619034;-0.389978;-0.681699;,
    -0.347646;0.858589;-0.376786;,
    -0.094071;0.932454;-0.348827;,
    -0.127886;0.691150;-0.711306;,
    -0.347646;0.858589;-0.376786;,
    -0.127886;0.691150;-0.711306;,
    -0.619541;0.390492;-0.680945;,
    -0.804643;0.521262;-0.284315;,
    -0.347646;0.858589;-0.376786;,
    -0.619541;0.390492;-0.680945;,
    0.846752;-0.529301;-0.053394;,
    0.870470;-0.485688;-0.079932;,
    0.815284;-0.571367;-0.094082;,
    0.865780;0.494220;-0.078551;,
    0.841942;0.536957;-0.053026;,
    0.810498;0.578224;-0.093544;,
    0.000000;0.000000;1.000000;,
    0.285387;0.000151;0.958412;,
    0.163440;0.000000;0.986553;,
    0.285387;0.000151;0.958412;,
    0.000000;0.000000;1.000000;,
    0.000000;0.000000;1.000000;,
    0.000000;0.000000;1.000000;,
    0.285387;0.000151;0.958412;,
    0.000000;0.000000;1.000000;,
    0.000000;0.000000;1.000000;,
    0.285387;0.000151;0.958412;,
    0.000000;0.000000;1.000000;,
    0.546635;0.000124;0.837371;,
    0.285387;0.000151;0.958412;,
    0.162038;-0.000000;0.986784;,
    0.285387;0.000151;0.958412;,
    0.546635;0.000124;0.837371;,
    0.547452;0.000123;0.836837;,
    0.163440;0.000000;0.986553;,
    0.285387;0.000151;0.958412;,
    0.547452;0.000123;0.836837;,
    0.508569;-0.860971;-0.009333;,
    0.509349;-0.860489;-0.011088;,
    0.509004;-0.860702;-0.010312;,
    0.509004;-0.860702;-0.010312;,
    0.508224;-0.861182;-0.008559;,
    0.508569;-0.860971;-0.009333;,
    0.793517;-0.608543;0.002610;,
    0.846752;-0.529301;-0.053394;,
    0.815284;-0.571367;-0.094082;,
    0.815284;-0.571367;-0.094082;,
    0.799972;-0.599996;0.007055;,
    0.793517;-0.608543;0.002610;,
    -0.323788;0.946130;0.000556;,
    -0.322864;0.946444;0.001771;,
    -0.323563;0.946206;0.000852;,
    -0.323563;0.946206;0.000852;,
    -0.324491;0.945889;-0.000371;,
    -0.323788;0.946130;0.000556;,
    -0.508046;0.861280;-0.009305;,
    -0.507967;0.861324;-0.009479;,
    -0.508144;0.861224;-0.009087;,
    -0.508144;0.861224;-0.009087;,
    -0.508223;0.861180;-0.008914;,
    -0.508046;0.861280;-0.009305;,
    0.810498;0.578224;-0.093544;,
    0.841942;0.536957;-0.053026;,
    0.792441;0.609946;0.001877;,
    0.792441;0.609946;0.001877;,
    0.799972;0.599996;0.007055;,
    0.810498;0.578224;-0.093544;,
    0.000000;-0.999966;-0.008216;,
    0.000000;-0.999966;-0.008216;,
    0.000000;-0.999966;-0.008216;,
    0.000000;-0.999966;-0.008216;,
    0.000000;-0.999966;-0.008216;,
    0.000000;-0.999966;-0.008216;,
    -0.000073;0.999926;-0.012136;,
    -0.000111;0.999927;-0.012072;,
    -0.000039;0.999926;-0.012192;,
    -0.000039;0.999926;-0.012192;,
    -0.000000;0.999925;-0.012256;,
    -0.000073;0.999926;-0.012136;,
    -0.508335;-0.861108;-0.009399;,
    -0.508720;-0.860871;-0.010266;,
    -0.507846;-0.861408;-0.008301;,
    -0.507846;-0.861408;-0.008301;,
    -0.507461;-0.861643;-0.007437;,
    -0.508335;-0.861108;-0.009399;,
    0.507453;0.861618;-0.010284;,
    0.507465;0.861611;-0.010258;,
    0.507460;0.861614;-0.010270;,
    0.507460;0.861614;-0.010270;,
    0.507448;0.861621;-0.010296;,
    0.507453;0.861618;-0.010284;,
    0.508993;-0.860771;-0.000703;,
    0.508993;-0.860770;-0.000701;,
    0.508991;-0.860772;-0.000712;,
    0.508991;-0.860772;-0.000712;,
    0.508990;-0.860772;-0.000714;,
    0.508993;-0.860771;-0.000703;,
    -0.508648;0.860975;-0.000386;,
    -0.508582;0.861013;-0.000706;,
    -0.508961;0.860789;0.001148;,
    -0.508961;0.860789;0.001148;,
    -0.509026;0.860750;0.001471;,
    -0.508648;0.860975;-0.000386;,
    -0.002342;-0.000677;0.999997;,
    -0.001252;-0.000822;0.999999;,
    -0.000893;-0.000800;0.999999;,
    -0.000893;-0.000800;0.999999;,
    -0.002402;-0.000622;0.999997;,
    -0.002342;-0.000677;0.999997;,
    0.000000;-1.000000;-0.000806;,
    0.000000;-1.000000;-0.000806;,
    0.000000;-1.000000;-0.000806;,
    0.000000;-1.000000;-0.000806;,
    0.000000;-1.000000;-0.000806;,
    0.000000;-1.000000;-0.000806;,
    -0.000013;1.000000;-0.000799;,
    -0.000015;1.000000;-0.000789;,
    -0.000003;1.000000;-0.000835;,
    -0.000003;1.000000;-0.000835;,
    -0.000000;1.000000;-0.000844;,
    -0.000013;1.000000;-0.000799;,
    -0.001252;-0.000822;0.999999;,
    0.001250;-0.000824;0.999999;,
    0.000893;-0.000801;0.999999;,
    0.000893;-0.000801;0.999999;,
    -0.000893;-0.000800;0.999999;,
    -0.001252;-0.000822;0.999999;,
    0.509065;-0.860724;-0.002746;,
    0.509076;-0.860717;-0.002722;,
    0.509051;-0.860732;-0.002779;,
    0.509051;-0.860732;-0.002779;,
    0.509040;-0.860738;-0.002803;,
    0.509065;-0.860724;-0.002746;,
    0.000000;-0.999995;-0.003162;,
    0.000000;-0.999995;-0.003162;,
    0.000000;-0.999995;-0.003162;,
    0.000000;-0.999995;-0.003162;,
    0.000000;-0.999995;-0.003162;,
    0.000000;-0.999995;-0.003162;,
    -0.000097;0.000411;-1.000000;,
    -0.000140;0.000412;-1.000000;,
    -0.000243;0.000410;-1.000000;,
    -0.000243;0.000410;-1.000000;,
    -0.000242;0.000409;-1.000000;,
    -0.000097;0.000411;-1.000000;,
    0.000097;0.000411;-1.000000;,
    0.000140;0.000411;-1.000000;,
    -0.000140;0.000412;-1.000000;,
    -0.000140;0.000412;-1.000000;,
    -0.000097;0.000411;-1.000000;,
    0.000097;0.000411;-1.000000;,
    -0.508863;0.860846;0.001758;,
    -0.508966;0.860785;0.001524;,
    -0.508922;0.860811;0.001625;,
    -0.508922;0.860811;0.001625;,
    -0.508819;0.860872;0.001859;,
    -0.508863;0.860846;0.001758;,
    -0.000000;0.999998;0.002065;,
    -0.000000;0.999998;0.002065;,
    -0.000000;0.999998;0.002065;,
    -0.000000;0.999998;0.002065;,
    -0.000000;0.999998;0.002065;,
    -0.000000;0.999998;0.002065;,
    0.000243;-0.000410;1.000000;,
    0.000139;-0.000410;1.000000;,
    0.000097;-0.000410;1.000000;,
    0.000097;-0.000410;1.000000;,
    0.000242;-0.000410;1.000000;,
    0.000243;-0.000410;1.000000;,
    0.000139;-0.000410;1.000000;,
    -0.000139;-0.000410;1.000000;,
    -0.000096;-0.000410;1.000000;,
    -0.000096;-0.000410;1.000000;,
    0.000097;-0.000410;1.000000;,
    0.000139;-0.000410;1.000000;,
    -0.000048;0.000205;-1.000000;,
    -0.000070;0.000205;-1.000000;,
    -0.000121;0.000205;-1.000000;,
    -0.000121;0.000205;-1.000000;,
    -0.000121;0.000205;-1.000000;,
    -0.000048;0.000205;-1.000000;,
    0.000048;0.000205;-1.000000;,
    0.000069;0.000205;-1.000000;,
    -0.000070;0.000205;-1.000000;,
    -0.000070;0.000205;-1.000000;,
    -0.000048;0.000205;-1.000000;,
    0.000048;0.000205;-1.000000;,
    -0.508770;-0.860903;-0.000648;,
    -0.508812;-0.860878;-0.000439;,
    -0.508805;-0.860882;-0.000475;,
    -0.508805;-0.860882;-0.000475;,
    -0.508762;-0.860907;-0.000684;,
    -0.508770;-0.860903;-0.000648;,
    0.508962;0.860788;0.000921;,
    0.508626;0.860987;-0.000727;,
    0.508684;0.860953;-0.000443;,
    0.508684;0.860953;-0.000443;,
    0.509021;0.860753;0.001207;,
    0.508962;0.860788;0.000921;,
    0.000893;-0.000801;0.999999;,
    0.001250;-0.000824;0.999999;,
    0.002341;-0.000678;0.999997;,
    0.002341;-0.000678;0.999997;,
    0.002402;-0.000622;0.999997;,
    0.000893;-0.000801;0.999999;,
    -0.508780;-0.860892;-0.002694;,
    -0.508768;-0.860900;-0.002723;,
    -0.508773;-0.860896;-0.002710;,
    -0.508773;-0.860896;-0.002710;,
    -0.508785;-0.860889;-0.002682;,
    -0.508780;-0.860892;-0.002694;,
    0.000242;0.000410;-1.000000;,
    0.000140;0.000411;-1.000000;,
    0.000097;0.000411;-1.000000;,
    0.000097;0.000411;-1.000000;,
    0.000242;0.000409;-1.000000;,
    0.000242;0.000410;-1.000000;,
    0.508702;0.860941;0.001551;,
    0.508713;0.860935;0.001525;,
    0.508687;0.860950;0.001585;,
    0.508687;0.860950;0.001585;,
    0.508675;0.860957;0.001611;,
    0.508702;0.860941;0.001551;,
    -0.000096;-0.000410;1.000000;,
    -0.000139;-0.000410;1.000000;,
    -0.000242;-0.000410;1.000000;,
    -0.000242;-0.000410;1.000000;,
    -0.000242;-0.000410;1.000000;,
    -0.000096;-0.000410;1.000000;,
    0.000121;0.000205;-1.000000;,
    0.000069;0.000205;-1.000000;,
    0.000048;0.000205;-1.000000;,
    0.000048;0.000205;-1.000000;,
    0.000121;0.000205;-1.000000;,
    0.000121;0.000205;-1.000000;,
    -0.000073;-0.000245;1.000000;,
    -0.000160;-0.000052;1.000000;,
    -0.000080;-0.000081;1.000000;,
    -0.000080;-0.000081;1.000000;,
    0.000005;-0.000319;1.000000;,
    -0.000073;-0.000245;1.000000;,
    -0.000160;-0.000052;1.000000;,
    0.000159;-0.000052;1.000000;,
    0.000092;-0.000069;1.000000;,
    0.000092;-0.000069;1.000000;,
    -0.000080;-0.000081;1.000000;,
    -0.000160;-0.000052;1.000000;,
    0.000092;-0.000069;1.000000;,
    0.000159;-0.000052;1.000000;,
    0.000156;-0.000166;1.000000;,
    0.000156;-0.000166;1.000000;,
    0.000110;-0.000209;1.000000;,
    0.000092;-0.000069;1.000000;,
    -0.215163;0.976567;0.004586;,
    -0.215162;0.976568;0.004588;,
    -0.215163;0.976567;0.004587;,
    -0.215163;0.976567;0.004587;,
    -0.215164;0.976567;0.004585;,
    -0.215163;0.976567;0.004586;,
    -0.928165;-0.372165;-0.001853;,
    -0.928102;-0.372320;-0.002073;,
    -0.928147;-0.372210;-0.001916;,
    -0.928147;-0.372210;-0.001916;,
    -0.928209;-0.372055;-0.001697;,
    -0.928165;-0.372165;-0.001853;,
    0.215162;0.976568;0.004566;,
    0.215165;0.976567;0.004570;,
    0.215163;0.976567;0.004568;,
    0.215163;0.976567;0.004568;,
    0.215161;0.976568;0.004563;,
    0.215162;0.976568;0.004566;,
    -0.920242;-0.391345;-0.001956;,
    -0.920178;-0.391495;-0.002182;,
    -0.920220;-0.391396;-0.002032;,
    -0.920220;-0.391396;-0.002032;,
    -0.920284;-0.391246;-0.001806;,
    -0.920242;-0.391345;-0.001956;,
    0.566295;-0.824197;-0.003211;,
    0.566281;-0.824206;-0.003219;,
    0.566285;-0.824203;-0.003216;,
    0.566285;-0.824203;-0.003216;,
    0.566299;-0.824193;-0.003209;,
    0.566295;-0.824197;-0.003211;,
    -0.184626;0.982804;0.003160;,
    -0.184626;0.982804;0.003161;,
    -0.184626;0.982804;0.003160;,
    -0.184626;0.982804;0.003160;,
    -0.184627;0.982804;0.003159;,
    -0.184626;0.982804;0.003160;,
    0.924887;-0.380240;-0.001377;,
    0.924847;-0.380336;-0.001492;,
    0.924892;-0.380227;-0.001362;,
    0.924892;-0.380227;-0.001362;,
    0.924931;-0.380132;-0.001247;,
    0.924887;-0.380240;-0.001377;,
    -0.940765;-0.339057;-0.001175;,
    -0.940798;-0.338965;-0.001284;,
    -0.940760;-0.339071;-0.001159;,
    -0.940760;-0.339071;-0.001159;,
    -0.940727;-0.339164;-0.001050;,
    -0.940765;-0.339057;-0.001175;,
    -0.566295;-0.824197;-0.003188;,
    -0.566280;-0.824206;-0.003180;,
    -0.566285;-0.824203;-0.003183;,
    -0.566285;-0.824203;-0.003183;,
    -0.566299;-0.824193;-0.003190;,
    -0.566295;-0.824197;-0.003188;,
    0.184626;0.982804;0.003146;,
    0.184629;0.982803;0.003149;,
    0.184627;0.982804;0.003147;,
    0.184627;0.982804;0.003147;,
    0.184624;0.982804;0.003144;,
    0.184626;0.982804;0.003146;,
    0.940673;-0.339313;-0.001242;,
    0.940645;-0.339390;-0.001333;,
    0.940677;-0.339302;-0.001228;,
    0.940677;-0.339302;-0.001228;,
    0.940704;-0.339225;-0.001137;,
    0.940673;-0.339313;-0.001242;,
    -0.924990;-0.379990;-0.001328;,
    -0.925029;-0.379893;-0.001443;,
    -0.924984;-0.380003;-0.001313;,
    -0.924984;-0.380003;-0.001313;,
    -0.924945;-0.380100;-0.001198;,
    -0.924990;-0.379990;-0.001328;,
    -0.005775;-0.999976;-0.003882;,
    -0.005774;-0.999976;-0.003882;,
    -0.005775;-0.999976;-0.003882;,
    -0.005775;-0.999976;-0.003882;,
    -0.005775;-0.999976;-0.003882;,
    -0.005775;-0.999976;-0.003882;,
    -0.165793;0.986155;0.003170;,
    -0.165792;0.986156;0.003171;,
    -0.165793;0.986156;0.003170;,
    -0.165793;0.986156;0.003170;,
    -0.165794;0.986155;0.003169;,
    -0.165793;0.986155;0.003170;,
    0.945115;-0.326736;-0.001190;,
    0.945090;-0.326808;-0.001282;,
    0.945122;-0.326717;-0.001165;,
    0.945122;-0.326717;-0.001165;,
    0.945147;-0.326645;-0.001073;,
    0.945115;-0.326736;-0.001190;,
    -0.922955;-0.384906;-0.001330;,
    -0.923006;-0.384783;-0.001463;,
    -0.922955;-0.384906;-0.001330;,
    -0.922955;-0.384906;-0.001330;,
    -0.922904;-0.385029;-0.001197;,
    -0.922955;-0.384906;-0.001330;,
    0.005775;-0.999976;-0.003882;,
    0.005775;-0.999976;-0.003882;,
    0.005775;-0.999976;-0.003882;,
    0.005775;-0.999976;-0.003882;,
    0.005775;-0.999976;-0.003882;,
    0.005775;-0.999976;-0.003882;,
    0.165785;0.986157;0.003158;,
    0.165788;0.986156;0.003161;,
    0.165786;0.986157;0.003159;,
    0.165786;0.986157;0.003159;,
    0.165784;0.986157;0.003155;,
    0.165785;0.986157;0.003158;,
    0.922846;-0.385167;-0.001397;,
    0.922802;-0.385271;-0.001511;,
    0.922846;-0.385167;-0.001397;,
    0.922846;-0.385167;-0.001397;,
    0.922890;-0.385063;-0.001284;,
    0.922846;-0.385167;-0.001397;,
    -0.945170;-0.326578;-0.001146;,
    -0.945195;-0.326505;-0.001239;,
    -0.945163;-0.326597;-0.001121;,
    -0.945163;-0.326597;-0.001121;,
    -0.945138;-0.326670;-0.001029;,
    -0.945170;-0.326578;-0.001146;,
    0.000000;-1.000000;-0.000231;,
    0.000000;-1.000000;-0.000231;,
    0.000000;-1.000000;-0.000231;,
    0.000000;-1.000000;-0.000231;,
    0.000000;-1.000000;-0.000231;,
    0.000000;-1.000000;-0.000231;,
    -0.000008;1.000000;-0.000229;,
    -0.000009;1.000000;-0.000226;,
    -0.000005;1.000000;-0.000240;,
    -0.000005;1.000000;-0.000240;,
    -0.000005;1.000000;-0.000242;,
    -0.000008;1.000000;-0.000229;,
    0.000000;-0.000616;1.000000;,
    0.000000;-0.000616;1.000000;,
    0.000000;-0.000616;1.000000;,
    0.000000;-0.000616;1.000000;,
    0.000000;-0.000616;1.000000;,
    0.000000;-0.000616;1.000000;,
    -0.000000;0.000412;-1.000000;,
    -0.000000;0.000412;-1.000000;,
    -0.000000;0.000412;-1.000000;,
    -0.000000;0.000412;-1.000000;,
    -0.000000;0.000412;-1.000000;,
    -0.000000;0.000412;-1.000000;,
    -0.942402;-0.334482;0.000022;,
    -0.942376;-0.334557;-0.000063;,
    -0.942400;-0.334488;0.000015;,
    -0.942400;-0.334488;0.000015;,
    -0.942427;-0.334413;0.000100;,
    -0.942402;-0.334482;0.000022;,
    0.941932;-0.335802;-0.000028;,
    0.941913;-0.335857;0.000034;,
    0.941931;-0.335807;-0.000023;,
    0.941931;-0.335807;-0.000023;,
    0.941950;-0.335752;-0.000085;,
    0.941932;-0.335802;-0.000028;,
    0.320774;-0.947155;0.000562;,
    0.319868;-0.947461;0.001753;,
    0.320554;-0.947230;0.000851;,
    0.320554;-0.947230;0.000851;,
    0.321467;-0.946921;-0.000347;,
    0.320774;-0.947155;0.000562;,
    0.999982;0.000000;0.005971;,
    0.999982;0.000000;0.005971;,
    0.999982;0.000000;0.005971;,
    0.999982;0.000000;0.005971;,
    0.999982;0.000000;0.005971;,
    0.999982;0.000000;0.005971;,
    -0.161648;0.000000;0.986849;,
    0.000000;0.000000;1.000000;,
    -0.283896;0.000149;0.958855;,
    0.000000;0.000000;1.000000;,
    -0.283896;0.000149;0.958855;,
    0.000000;0.000000;1.000000;,
    0.106810;-0.994278;-0.001563;,
    0.096429;-0.929496;-0.356003;,
    0.348713;-0.857100;-0.379180;,
    0.348713;-0.857100;-0.379180;,
    0.390507;-0.920599;-0.001332;,
    0.106810;-0.994278;-0.001563;,
    0.348713;-0.857100;-0.379180;,
    0.805076;-0.520580;-0.284340;,
    0.843287;-0.537463;-0.000506;,
    0.843287;-0.537463;-0.000506;,
    0.390507;-0.920599;-0.001332;,
    0.348713;-0.857100;-0.379180;,
    0.843287;-0.537463;-0.000506;,
    0.805076;-0.520580;-0.284340;,
    0.946165;-0.000001;-0.323685;,
    0.946165;-0.000001;-0.323685;,
    1.000000;-0.000001;0.000000;,
    0.843287;-0.537463;-0.000506;,
    0.946165;-0.000001;-0.323685;,
    0.804643;0.521262;-0.284315;,
    0.841592;0.540114;0.000000;,
    0.841592;0.540114;0.000000;,
    1.000000;-0.000001;0.000000;,
    0.946165;-0.000001;-0.323685;,
    0.347646;0.858589;-0.376786;,
    0.094071;0.932454;-0.348827;,
    0.100376;0.994950;-0.000000;,
    0.100376;0.994950;-0.000000;,
    0.384133;0.923278;-0.000000;,
    0.347646;0.858589;-0.376786;,
    0.348713;-0.857100;-0.379180;,
    0.096429;-0.929496;-0.356003;,
    0.127524;-0.684288;-0.717974;,
    0.348713;-0.857100;-0.379180;,
    0.127524;-0.684288;-0.717974;,
    0.619034;-0.389978;-0.681700;,
    0.348713;-0.857100;-0.379180;,
    0.619034;-0.389978;-0.681700;,
    0.805076;-0.520580;-0.284340;,
    0.946165;-0.000001;-0.323685;,
    0.805076;-0.520580;-0.284340;,
    0.619034;-0.389978;-0.681700;,
    0.946165;-0.000001;-0.323685;,
    0.619034;-0.389978;-0.681700;,
    0.619540;0.390492;-0.680945;,
    0.946165;-0.000001;-0.323685;,
    0.619540;0.390492;-0.680945;,
    0.804643;0.521262;-0.284315;,
    0.347646;0.858589;-0.376786;,
    0.804643;0.521262;-0.284315;,
    0.619540;0.390492;-0.680945;,
    0.347646;0.858589;-0.376786;,
    0.619540;0.390492;-0.680945;,
    0.127886;0.691150;-0.711306;,
    0.347646;0.858589;-0.376786;,
    0.127886;0.691150;-0.711306;,
    0.094071;0.932454;-0.348827;,
    -0.869512;-0.487292;-0.080593;,
    -0.845511;-0.531278;-0.053430;,
    -0.813559;-0.573807;-0.094169;,
    -0.840413;0.539330;-0.053199;,
    -0.864600;0.496167;-0.079273;,
    -0.808429;0.581060;-0.093871;,
    -0.283896;0.000149;0.958855;,
    0.000000;0.000000;1.000000;,
    -0.163039;-0.000000;0.986620;,
    0.000000;0.000000;1.000000;,
    -0.283896;0.000149;0.958855;,
    0.000000;0.000000;1.000000;,
    -0.283896;0.000149;0.958855;,
    0.000000;0.000000;1.000000;,
    0.000000;0.000000;1.000000;,
    -0.283896;0.000149;0.958855;,
    0.000000;0.000000;1.000000;,
    0.000000;0.000000;1.000000;,
    -0.283896;0.000149;0.958855;,
    -0.544035;0.000124;0.839063;,
    -0.161648;0.000000;0.986849;,
    -0.544035;0.000124;0.839063;,
    -0.283896;0.000149;0.958855;,
    -0.544839;0.000122;0.838541;,
    -0.283896;0.000149;0.958855;,
    -0.163039;-0.000000;0.986620;,
    -0.544839;0.000122;0.838541;,
    -0.813559;-0.573807;-0.094169;,
    -0.845511;-0.531278;-0.053430;,
    -0.790089;-0.612985;0.002860;,
    -0.790089;-0.612985;0.002860;,
    -0.796175;-0.605025;0.007039;,
    -0.813559;-0.573807;-0.094169;,
    0.323563;0.946206;0.000852;,
    0.322864;0.946444;0.001771;,
    0.323788;0.946130;0.000556;,
    0.323788;0.946130;0.000556;,
    0.324492;0.945889;-0.000371;,
    0.323563;0.946206;0.000852;,
    -0.788904;0.614512;0.002054;,
    -0.840413;0.539330;-0.053199;,
    -0.808429;0.581060;-0.093871;,
    -0.808429;0.581060;-0.093871;,
    -0.796176;0.605024;0.007039;,
    -0.788904;0.614512;0.002054;,
    -0.999999;0.001412;0.000039;,
    -0.999999;0.001301;0.000002;,
    -0.999999;0.001729;0.000146;,
    -0.999999;0.001729;0.000146;,
    -0.999998;0.001840;0.000183;,
    -0.999999;0.001412;0.000039;,
    -0.389922;-0.920847;-0.001242;,
    -0.843475;-0.537169;0.000000;,
    -0.805121;-0.520380;-0.284580;,
    -0.805121;-0.520380;-0.284580;,
    -0.348366;-0.857224;-0.379221;,
    -0.389922;-0.920847;-0.001242;,
    -1.000000;-0.000001;0.000000;,
    -0.841592;0.540114;0.000000;,
    -0.804643;0.521262;-0.284315;,
    -0.804643;0.521262;-0.284315;,
    -0.946165;-0.000001;-0.323685;,
    -1.000000;-0.000001;0.000000;,
    -0.384133;0.923278;0.000000;,
    -0.100376;0.994950;0.000000;,
    -0.094071;0.932454;-0.348827;,
    -0.094071;0.932454;-0.348827;,
    -0.347646;0.858589;-0.376786;,
    -0.384133;0.923278;0.000000;,
    0.999999;0.001605;0.000083;,
    0.999998;0.001840;0.000005;,
    1.000000;0.000928;0.000308;,
    1.000000;0.000928;0.000308;,
    1.000000;0.000692;0.000386;,
    0.999999;0.001605;0.000083;,
    0.508725;-0.860915;-0.004900;,
    0.508730;-0.860912;-0.004903;,
    0.508718;-0.860919;-0.004896;,
    0.508718;-0.860919;-0.004896;,
    0.508713;-0.860922;-0.004893;,
    0.508725;-0.860915;-0.004900;,
    0.920117;-0.391638;-0.002017;,
    0.920180;-0.391489;-0.002239;,
    0.920138;-0.391588;-0.002092;,
    0.920138;-0.391588;-0.002092;,
    0.920076;-0.391737;-0.001869;,
    0.920117;-0.391638;-0.002017;,
    -0.508725;-0.860916;-0.004865;,
    -0.508730;-0.860912;-0.004861;,
    -0.508718;-0.860920;-0.004869;,
    -0.508718;-0.860920;-0.004869;,
    -0.508712;-0.860923;-0.004872;,
    -0.508725;-0.860916;-0.004865;,
    0.928043;-0.372468;-0.001940;,
    0.928097;-0.372332;-0.002130;,
    0.928059;-0.372429;-0.001995;,
    0.928059;-0.372429;-0.001995;,
    0.928005;-0.372564;-0.001805;,
    0.928043;-0.372468;-0.001940;,
    0.865780;0.494220;-0.078551;,
    0.869886;0.493253;0.000000;,
    0.869729;0.493529;0.000067;,
    0.869729;0.493529;0.000067;,
    0.841942;0.536957;-0.053026;,
    0.865780;0.494220;-0.078551;,
    0.384133;0.923278;-0.000000;,
    0.841592;0.540114;0.000000;,
    0.804643;0.521262;-0.284315;,
    0.804643;0.521262;-0.284315;,
    0.347646;0.858589;-0.376786;,
    0.384133;0.923278;-0.000000;,
    -0.869512;-0.487292;-0.080593;,
    -0.871774;-0.489907;-0.001160;,
    -0.871864;-0.489747;-0.001199;,
    -0.871864;-0.489747;-0.001199;,
    -0.845511;-0.531278;-0.053430;,
    -0.869512;-0.487292;-0.080593;,
    -0.868318;0.496007;0.000050;,
    -0.868436;0.495802;0.000000;,
    -0.864600;0.496167;-0.079273;,
    -0.864600;0.496167;-0.079273;,
    -0.840413;0.539330;-0.053199;,
    -0.868318;0.496007;0.000050;;
    222;
    3;0,1,2;,
    3;3,4,5;,
    3;6,7,8;,
    3;9,10,11;,
    3;12,13,14;,
    3;15,16,17;,
    3;18,19,20;,
    3;21,22,23;,
    3;24,25,26;,
    3;27,28,29;,
    3;30,31,32;,
    3;33,34,35;,
    3;36,37,38;,
    3;39,40,41;,
    3;42,43,44;,
    3;45,46,47;,
    3;48,49,50;,
    3;51,52,53;,
    3;54,55,56;,
    3;57,58,59;,
    3;60,61,62;,
    3;63,64,65;,
    3;66,67,68;,
    3;69,70,71;,
    3;72,73,74;,
    3;75,76,77;,
    3;78,79,80;,
    3;81,82,83;,
    3;84,85,86;,
    3;87,88,89;,
    3;90,91,92;,
    3;93,94,95;,
    3;96,97,98;,
    3;99,100,101;,
    3;102,103,104;,
    3;105,106,107;,
    3;108,109,110;,
    3;111,112,113;,
    3;114,115,116;,
    3;117,118,119;,
    3;120,121,122;,
    3;123,124,125;,
    3;126,127,128;,
    3;129,130,131;,
    3;132,133,134;,
    3;135,136,137;,
    3;138,139,140;,
    3;141,142,143;,
    3;144,145,146;,
    3;147,148,149;,
    3;150,151,152;,
    3;153,154,155;,
    3;156,157,158;,
    3;159,160,161;,
    3;162,163,164;,
    3;165,166,167;,
    3;168,169,170;,
    3;171,172,173;,
    3;174,175,176;,
    3;177,178,179;,
    3;180,181,182;,
    3;183,184,185;,
    3;186,187,188;,
    3;189,190,191;,
    3;192,193,194;,
    3;195,196,197;,
    3;198,199,200;,
    3;201,202,203;,
    3;204,205,206;,
    3;207,208,209;,
    3;210,211,212;,
    3;213,214,215;,
    3;216,217,218;,
    3;219,220,221;,
    3;222,223,224;,
    3;225,226,227;,
    3;228,229,230;,
    3;231,232,233;,
    3;234,235,236;,
    3;237,238,239;,
    3;240,241,242;,
    3;243,244,245;,
    3;246,247,248;,
    3;249,250,251;,
    3;252,253,254;,
    3;255,256,257;,
    3;258,259,260;,
    3;261,262,263;,
    3;264,265,266;,
    3;267,268,269;,
    3;270,271,272;,
    3;273,274,275;,
    3;276,277,278;,
    3;279,280,281;,
    3;282,283,284;,
    3;285,286,287;,
    3;288,289,290;,
    3;291,292,293;,
    3;294,295,296;,
    3;297,298,299;,
    3;300,301,302;,
    3;303,304,305;,
    3;306,307,308;,
    3;309,310,311;,
    3;312,313,314;,
    3;315,316,317;,
    3;318,319,320;,
    3;321,322,323;,
    3;324,325,326;,
    3;327,328,329;,
    3;330,331,332;,
    3;333,334,335;,
    3;336,337,338;,
    3;339,340,341;,
    3;342,343,344;,
    3;345,346,347;,
    3;348,349,350;,
    3;351,352,353;,
    3;354,355,356;,
    3;357,358,359;,
    3;360,361,362;,
    3;363,364,365;,
    3;366,367,368;,
    3;369,370,371;,
    3;372,373,374;,
    3;375,376,377;,
    3;378,379,380;,
    3;381,382,383;,
    3;384,385,386;,
    3;387,388,389;,
    3;390,391,392;,
    3;393,394,395;,
    3;396,397,398;,
    3;399,400,401;,
    3;402,403,404;,
    3;405,406,407;,
    3;408,409,410;,
    3;411,412,413;,
    3;414,415,416;,
    3;417,418,419;,
    3;420,421,422;,
    3;423,424,425;,
    3;426,427,428;,
    3;429,430,431;,
    3;432,433,434;,
    3;435,436,437;,
    3;438,439,440;,
    3;441,442,443;,
    3;444,445,446;,
    3;447,448,449;,
    3;450,451,452;,
    3;453,454,455;,
    3;456,457,458;,
    3;459,460,461;,
    3;462,463,464;,
    3;465,466,467;,
    3;468,469,470;,
    3;471,472,473;,
    3;474,475,476;,
    3;477,478,479;,
    3;480,481,482;,
    3;483,484,485;,
    3;486,487,488;,
    3;489,490,491;,
    3;492,493,494;,
    3;495,496,497;,
    3;498,499,500;,
    3;501,502,503;,
    3;504,505,506;,
    3;507,508,509;,
    3;510,511,512;,
    3;513,514,515;,
    3;516,517,518;,
    3;519,520,521;,
    3;522,523,524;,
    3;525,526,527;,
    3;528,529,530;,
    3;531,532,533;,
    3;534,535,536;,
    3;537,538,539;,
    3;540,541,542;,
    3;543,544,545;,
    3;546,547,548;,
    3;549,550,551;,
    3;552,553,554;,
    3;555,556,557;,
    3;558,559,560;,
    3;561,562,563;,
    3;564,565,566;,
    3;567,568,569;,
    3;570,571,572;,
    3;573,574,575;,
    3;576,577,578;,
    3;579,580,581;,
    3;582,583,584;,
    3;585,586,587;,
    3;588,589,590;,
    3;591,592,593;,
    3;594,595,596;,
    3;597,598,599;,
    3;600,601,602;,
    3;603,604,605;,
    3;606,607,608;,
    3;609,610,611;,
    3;612,613,614;,
    3;615,616,617;,
    3;618,619,620;,
    3;621,622,623;,
    3;624,625,626;,
    3;627,628,629;,
    3;630,631,632;,
    3;633,634,635;,
    3;636,637,638;,
    3;639,640,641;,
    3;642,643,644;,
    3;645,646,647;,
    3;648,649,650;,
    3;651,652,653;,
    3;654,655,656;,
    3;657,658,659;,
    3;660,661,662;,
    3;663,664,665;;
   }

   MeshMaterialList  {
    1;
    222;
    0,
    0,
    0,
    0,
    0,
    0,
    0,
    0,
    0,
    0,
    0,
    0,
    0,
    0,
    0,
    0,
    0,
    0,
    0,
    0,
    0,
    0,
    0,
    0,
    0,
    0,
    0,
    0,
    0,
    0,
    0,
    0,
    0,
    0,
    0,
    0,
    0,
    0,
    0,
    0,
    0,
    0,
    0,
    0,
    0,
    0,
    0,
    0,
    0,
    0,
    0,
    0,
    0,
    0,
    0,
    0,
    0,
    0,
    0,
    0,
    0,
    0,
    0,
    0,
    0,
    0,
    0,
    0,
    0,
    0,
    0,
    0,
    0,
    0,
    0,
    0,
    0,
    0,
    0,
    0,
    0,
    0,
    0,
    0,
    0,
    0,
    0,
    0,
    0,
    0,
    0,
    0,
    0,
    0,
    0,
    0,
    0,
    0,
    0,
    0,
    0,
    0,
    0,
    0,
    0,
    0,
    0,
    0,
    0,
    0,
    0,
    0,
    0,
    0,
    0,
    0,
    0,
    0,
    0,
    0,
    0,
    0,
    0,
    0,
    0,
    0,
    0,
    0,
    0,
    0,
    0,
    0,
    0,
    0,
    0,
    0,
    0,
    0,
    0,
    0,
    0,
    0,
    0,
    0,
    0,
    0,
    0,
    0,
    0,
    0,
    0,
    0,
    0,
    0,
    0,
    0,
    0,
    0,
    0,
    0,
    0,
    0,
    0,
    0,
    0,
    0,
    0,
    0,
    0,
    0,
    0,
    0,
    0,
    0,
    0,
    0,
    0,
    0,
    0,
    0,
    0,
    0,
    0,
    0,
    0,
    0,
    0,
    0,
    0,
    0,
    0,
    0,
    0,
    0,
    0,
    0,
    0,
    0,
    0,
    0,
    0,
    0,
    0,
    0,
    0,
    0,
    0,
    0,
    0,
    0,
    0,
    0,
    0,
    0,
    0,
    0,
    0,
    0,
    0,
    0,
    0,
    0;
    { skyscrapers }
   }

   MeshTextureCoords  {
    666;
    0.153732;0.922639;,
    0.153217;1.008925;,
    0.248059;1.008911;,
    0.248059;1.008911;,
    0.248343;0.922626;,
    0.153732;0.922639;,
    0.185589;0.922626;,
    0.185305;1.008911;,
    0.090463;1.008925;,
    0.090463;1.008925;,
    0.090978;0.922639;,
    0.185589;0.922626;,
    0.961977;0.122626;,
    0.922360;0.122998;,
    0.937604;0.211858;,
    0.937604;0.211858;,
    0.922000;0.123035;,
    0.961977;0.122626;,
    0.528735;0.040439;,
    0.528735;0.186738;,
    0.487756;0.186738;,
    0.487756;0.186738;,
    0.487756;0.040439;,
    0.528735;0.040439;,
    0.538480;0.040439;,
    0.538480;0.186738;,
    0.514924;0.186738;,
    0.514924;0.186738;,
    0.514924;0.040439;,
    0.538480;0.040439;,
    0.527944;0.186738;,
    0.562595;0.186738;,
    0.562595;0.040439;,
    0.562595;0.040439;,
    0.527944;0.040439;,
    0.527944;0.186738;,
    1.088479;0.208643;,
    1.053952;0.208560;,
    1.053888;0.080249;,
    1.053888;0.080249;,
    1.088479;0.071679;,
    1.088479;0.208643;,
    0.903746;0.364830;,
    0.999322;0.364830;,
    0.985485;0.407863;,
    0.903746;0.364830;,
    0.985485;0.407863;,
    0.810105;0.408184;,
    0.808169;0.364831;,
    0.903746;0.364830;,
    0.810105;0.408184;,
    0.899376;0.364830;,
    0.798663;0.364831;,
    0.818253;0.408184;,
    0.899376;0.364830;,
    0.818253;0.408184;,
    0.976658;0.407863;,
    1.000088;0.364830;,
    0.899376;0.364830;,
    0.976658;0.407863;,
    0.905592;0.364830;,
    0.808169;0.364831;,
    0.810105;0.408184;,
    0.905592;0.364830;,
    0.810105;0.408184;,
    0.985485;0.407863;,
    1.003014;0.364830;,
    0.905592;0.364830;,
    0.985485;0.407863;,
    0.812991;0.392270;,
    0.813147;0.367437;,
    0.840094;0.367583;,
    0.813147;0.367437;,
    0.840094;0.367583;,
    0.812991;0.392270;,
    0.960787;0.122881;,
    0.937604;0.211858;,
    0.922465;0.122463;,
    0.937604;0.211858;,
    0.961015;0.122829;,
    0.922000;0.123035;,
    0.921515;0.121785;,
    0.937604;0.211858;,
    0.960787;0.122881;,
    0.961015;0.122829;,
    0.937604;0.211858;,
    0.921515;0.121785;,
    1.254773;0.955869;,
    1.302081;0.919580;,
    1.200708;0.919546;,
    1.302081;0.919580;,
    1.254773;0.955869;,
    1.350680;0.955663;,
    1.403453;0.919615;,
    1.302081;0.919580;,
    1.350680;0.955663;,
    0.360398;0.893207;,
    0.217489;0.893207;,
    0.217730;1.009007;,
    0.217730;1.009007;,
    0.360595;1.009007;,
    0.360398;0.893207;,
    0.276759;1.009007;,
    0.276604;0.893207;,
    0.248343;0.922626;,
    0.248343;0.922626;,
    0.248059;1.008911;,
    0.276759;1.009007;,
    0.248059;1.008911;,
    0.153217;1.008925;,
    0.153732;0.922639;,
    0.153732;0.922639;,
    0.248343;0.922626;,
    0.248059;1.008911;,
    0.217730;1.009007;,
    0.217489;0.893207;,
    0.360398;0.893207;,
    0.360398;0.893207;,
    0.360595;1.009007;,
    0.217730;1.009007;,
    0.248343;0.922626;,
    0.276604;0.893207;,
    0.276759;1.009007;,
    0.276759;1.009007;,
    0.248059;1.008911;,
    0.248343;0.922626;,
    0.360398;0.893207;,
    0.217489;0.893207;,
    0.217730;1.009007;,
    0.217730;1.009007;,
    0.360595;1.009007;,
    0.360398;0.893207;,
    0.217730;1.009007;,
    0.217489;0.893207;,
    0.360398;0.893207;,
    0.360398;0.893207;,
    0.360595;1.009007;,
    0.217730;1.009007;,
    0.217730;1.009007;,
    0.217489;0.893207;,
    0.360398;0.893207;,
    0.360398;0.893207;,
    0.360595;1.009007;,
    0.217730;1.009007;,
    0.360398;0.893207;,
    0.217489;0.893207;,
    0.217730;1.009007;,
    0.217730;1.009007;,
    0.360595;1.009007;,
    0.360398;0.893207;,
    0.633140;0.250422;,
    0.633140;0.265087;,
    0.713477;0.265087;,
    0.713477;0.265087;,
    0.713477;0.250422;,
    0.633140;0.250422;,
    0.713477;0.250422;,
    0.713477;0.265107;,
    0.633140;0.265107;,
    0.633140;0.265107;,
    0.633140;0.250422;,
    0.713477;0.250422;,
    0.894506;0.224384;,
    0.998927;0.224384;,
    0.999171;0.136203;,
    0.999171;0.136203;,
    0.894262;0.136203;,
    0.894506;0.224384;,
    0.633140;0.250422;,
    0.633140;0.265087;,
    0.713477;0.265087;,
    0.713477;0.265087;,
    0.713477;0.250422;,
    0.633140;0.250422;,
    0.713477;0.250422;,
    0.713477;0.265107;,
    0.633140;0.265107;,
    0.633140;0.265107;,
    0.633140;0.250422;,
    0.713477;0.250422;,
    0.894506;0.224384;,
    0.998927;0.224384;,
    0.999171;0.136203;,
    0.999171;0.136203;,
    0.894262;0.136203;,
    0.894506;0.224384;,
    0.633140;0.435092;,
    0.633140;0.466637;,
    0.713477;0.466637;,
    0.713477;0.466637;,
    0.713477;0.435092;,
    0.633140;0.435092;,
    0.633140;0.435092;,
    0.633140;0.466637;,
    0.713477;0.466637;,
    0.713477;0.466637;,
    0.713477;0.435092;,
    0.633140;0.435092;,
    0.999171;0.136203;,
    0.998927;0.224384;,
    0.894506;0.224384;,
    0.894506;0.224384;,
    0.894262;0.136203;,
    0.999171;0.136203;,
    0.999171;0.136203;,
    0.998927;0.224384;,
    0.894506;0.224384;,
    0.894506;0.224384;,
    0.894262;0.136203;,
    0.999171;0.136203;,
    0.713477;0.466637;,
    0.633140;0.466637;,
    0.633140;0.435092;,
    0.633140;0.435092;,
    0.713477;0.435092;,
    0.713477;0.466637;,
    0.713477;0.466637;,
    0.633140;0.466637;,
    0.633140;0.435092;,
    0.633140;0.435092;,
    0.713477;0.435092;,
    0.713477;0.466637;,
    0.894506;0.224384;,
    0.998927;0.224384;,
    0.999171;0.136203;,
    0.999171;0.136203;,
    0.894262;0.136203;,
    0.894506;0.224384;,
    0.894506;0.224384;,
    0.998927;0.224384;,
    0.999171;0.136203;,
    0.999171;0.136203;,
    0.894262;0.136203;,
    0.894506;0.224384;,
    0.999171;0.136203;,
    0.998927;0.224384;,
    0.894506;0.224384;,
    0.894506;0.224384;,
    0.894262;0.136203;,
    0.999171;0.136203;,
    0.999171;0.136203;,
    0.998927;0.224384;,
    0.894506;0.224384;,
    0.894506;0.224384;,
    0.894262;0.136203;,
    0.999171;0.136203;,
    0.713477;0.265087;,
    0.633140;0.265087;,
    0.633140;0.250422;,
    0.633140;0.250422;,
    0.713477;0.250422;,
    0.713477;0.265087;,
    0.633140;0.265107;,
    0.713477;0.265107;,
    0.713477;0.250422;,
    0.713477;0.250422;,
    0.633140;0.250422;,
    0.633140;0.265107;,
    0.999171;0.136203;,
    0.998927;0.224384;,
    0.894506;0.224384;,
    0.894506;0.224384;,
    0.894262;0.136203;,
    0.999171;0.136203;,
    0.713477;0.466637;,
    0.633140;0.466637;,
    0.633140;0.435092;,
    0.633140;0.435092;,
    0.713477;0.435092;,
    0.713477;0.466637;,
    0.894506;0.224384;,
    0.998927;0.224384;,
    0.999171;0.136203;,
    0.999171;0.136203;,
    0.894262;0.136203;,
    0.894506;0.224384;,
    0.633140;0.435092;,
    0.633140;0.466637;,
    0.713477;0.466637;,
    0.713477;0.466637;,
    0.713477;0.435092;,
    0.633140;0.435092;,
    0.999171;0.136203;,
    0.998927;0.224384;,
    0.894506;0.224384;,
    0.894506;0.224384;,
    0.894262;0.136203;,
    0.999171;0.136203;,
    0.894506;0.224384;,
    0.998927;0.224384;,
    0.999171;0.136203;,
    0.999171;0.136203;,
    0.894262;0.136203;,
    0.894506;0.224384;,
    0.894506;0.224384;,
    0.998927;0.224384;,
    0.999171;0.136203;,
    0.999171;0.136203;,
    0.894262;0.136203;,
    0.894506;0.224384;,
    0.894506;0.224384;,
    0.998927;0.224384;,
    0.999171;0.136203;,
    0.999171;0.136203;,
    0.894262;0.136203;,
    0.894506;0.224384;,
    0.999171;0.136203;,
    0.998927;0.224384;,
    0.894506;0.224384;,
    0.894506;0.224384;,
    0.894262;0.136203;,
    0.999171;0.136203;,
    0.665488;0.180880;,
    0.649751;0.180880;,
    0.649751;0.112095;,
    0.649751;0.112095;,
    0.665488;0.112095;,
    0.665488;0.180880;,
    0.704248;0.180880;,
    0.649751;0.180862;,
    0.649751;0.112095;,
    0.649751;0.112095;,
    0.704248;0.112095;,
    0.704248;0.180880;,
    0.665488;0.180880;,
    0.649751;0.180880;,
    0.649751;0.112095;,
    0.649751;0.112095;,
    0.665488;0.112095;,
    0.665488;0.180880;,
    0.704248;0.180880;,
    0.649751;0.180862;,
    0.649751;0.112095;,
    0.649751;0.112095;,
    0.704248;0.112095;,
    0.704248;0.180880;,
    0.649751;0.112095;,
    0.649751;0.189782;,
    0.665488;0.189782;,
    0.665488;0.189782;,
    0.665488;0.112095;,
    0.649751;0.112095;,
    0.665488;0.189782;,
    0.649751;0.189782;,
    0.649751;0.112095;,
    0.649751;0.112095;,
    0.665488;0.112095;,
    0.665488;0.189782;,
    0.649751;0.112095;,
    0.649751;0.189782;,
    0.704248;0.189782;,
    0.704248;0.189782;,
    0.704248;0.112095;,
    0.649751;0.112095;,
    0.649751;0.189782;,
    0.649751;0.112095;,
    0.704248;0.112095;,
    0.704248;0.112095;,
    0.704248;0.189782;,
    0.649751;0.189782;,
    0.649751;0.112095;,
    0.649751;0.189782;,
    0.665488;0.189782;,
    0.665488;0.189782;,
    0.665488;0.112095;,
    0.649751;0.112095;,
    0.665488;0.189782;,
    0.649751;0.189782;,
    0.649751;0.112095;,
    0.649751;0.112095;,
    0.665488;0.112095;,
    0.665488;0.189782;,
    0.649751;0.112095;,
    0.649751;0.189782;,
    0.704248;0.189782;,
    0.704248;0.189782;,
    0.704248;0.112095;,
    0.649751;0.112095;,
    0.649751;0.189782;,
    0.649751;0.112095;,
    0.704248;0.112095;,
    0.704248;0.112095;,
    0.704248;0.189782;,
    0.649751;0.189782;,
    0.649751;0.112095;,
    0.649751;0.189782;,
    0.665488;0.189782;,
    0.665488;0.189782;,
    0.665488;0.112095;,
    0.649751;0.112095;,
    0.665488;0.189782;,
    0.649751;0.189782;,
    0.649751;0.112095;,
    0.649751;0.112095;,
    0.665488;0.112095;,
    0.665488;0.189782;,
    0.649751;0.112095;,
    0.649751;0.189782;,
    0.704248;0.189782;,
    0.704248;0.189782;,
    0.704248;0.112095;,
    0.649751;0.112095;,
    0.649751;0.189782;,
    0.649751;0.112095;,
    0.704248;0.112095;,
    0.704248;0.112095;,
    0.704248;0.189782;,
    0.649751;0.189782;,
    0.649751;0.112095;,
    0.649751;0.189782;,
    0.665488;0.189782;,
    0.665488;0.189782;,
    0.665488;0.112095;,
    0.649751;0.112095;,
    0.665488;0.189782;,
    0.649751;0.189782;,
    0.649751;0.112095;,
    0.649751;0.112095;,
    0.665488;0.112095;,
    0.665488;0.189782;,
    0.649751;0.112095;,
    0.649751;0.189782;,
    0.704248;0.189782;,
    0.704248;0.189782;,
    0.704248;0.112095;,
    0.649751;0.112095;,
    0.649751;0.189782;,
    0.649751;0.112095;,
    0.704248;0.112095;,
    0.704248;0.112095;,
    0.704248;0.189782;,
    0.649751;0.189782;,
    0.492513;0.231470;,
    0.492513;0.272518;,
    0.607774;0.272518;,
    0.607774;0.272518;,
    0.607774;0.231470;,
    0.492513;0.231470;,
    0.626191;0.231470;,
    0.626191;0.272547;,
    0.492513;0.272547;,
    0.492513;0.272547;,
    0.492513;0.231470;,
    0.626191;0.231470;,
    0.894506;0.224384;,
    0.998927;0.224384;,
    0.999171;0.136203;,
    0.999171;0.136203;,
    0.894262;0.136203;,
    0.894506;0.224384;,
    0.999171;0.136203;,
    0.998927;0.224384;,
    0.894506;0.224384;,
    0.894506;0.224384;,
    0.894262;0.136203;,
    0.999171;0.136203;,
    0.608719;0.272518;,
    0.539556;0.272518;,
    0.539556;0.231470;,
    0.539556;0.231470;,
    0.608719;0.231470;,
    0.608719;0.272518;,
    0.607774;0.272518;,
    0.538611;0.272518;,
    0.538611;0.231470;,
    0.538611;0.231470;,
    0.607774;0.231470;,
    0.607774;0.272518;,
    0.248059;1.008911;,
    0.153217;1.008925;,
    0.153732;0.922639;,
    0.153732;0.922639;,
    0.248343;0.922626;,
    0.248059;1.008911;,
    0.090463;1.008925;,
    0.185305;1.008911;,
    0.185589;0.922626;,
    0.185589;0.922626;,
    0.090978;0.922639;,
    0.090463;1.008925;,
    0.922360;0.122998;,
    0.961977;0.122626;,
    0.937604;0.211858;,
    0.922000;0.123035;,
    0.937604;0.211858;,
    0.961977;0.122626;,
    0.487756;0.040439;,
    0.487756;0.186738;,
    0.528735;0.186738;,
    0.528735;0.186738;,
    0.528735;0.040439;,
    0.487756;0.040439;,
    0.528735;0.186738;,
    0.558640;0.186738;,
    0.558640;0.040439;,
    0.558640;0.040439;,
    0.528735;0.040439;,
    0.528735;0.186738;,
    0.514924;0.040439;,
    0.514924;0.186738;,
    0.538480;0.186738;,
    0.538480;0.186738;,
    0.538480;0.040439;,
    0.514924;0.040439;,
    0.538480;0.186738;,
    0.562036;0.186738;,
    0.562036;0.040439;,
    0.562036;0.040439;,
    0.538480;0.040439;,
    0.538480;0.186738;,
    0.527944;0.186738;,
    0.487756;0.186738;,
    0.487756;0.040439;,
    0.487756;0.040439;,
    0.527944;0.040439;,
    0.527944;0.186738;,
    0.903746;0.364830;,
    0.808169;0.364831;,
    0.810105;0.408184;,
    0.903746;0.364830;,
    0.810105;0.408184;,
    0.985485;0.407863;,
    0.903746;0.364830;,
    0.985485;0.407863;,
    0.999322;0.364830;,
    0.899376;0.364830;,
    1.000088;0.364830;,
    0.976658;0.407863;,
    0.899376;0.364830;,
    0.976658;0.407863;,
    0.818253;0.408184;,
    0.899376;0.364830;,
    0.818253;0.408184;,
    0.798663;0.364831;,
    0.905592;0.364830;,
    1.003014;0.364830;,
    0.985485;0.407863;,
    0.905592;0.364830;,
    0.985485;0.407863;,
    0.810105;0.408184;,
    0.905592;0.364830;,
    0.810105;0.408184;,
    0.808169;0.364831;,
    0.813147;0.367437;,
    0.812991;0.392270;,
    0.840094;0.367583;,
    0.840094;0.367583;,
    0.813147;0.367437;,
    0.812991;0.392270;,
    0.937604;0.211858;,
    0.960787;0.122881;,
    0.922465;0.122463;,
    0.961015;0.122829;,
    0.937604;0.211858;,
    0.922000;0.123035;,
    0.937604;0.211858;,
    0.921515;0.121785;,
    0.960787;0.122881;,
    0.937604;0.211858;,
    0.961015;0.122829;,
    0.921515;0.121785;,
    1.302081;0.919580;,
    1.254773;0.955869;,
    1.200708;0.919546;,
    1.254773;0.955869;,
    1.302081;0.919580;,
    1.350680;0.955663;,
    1.302081;0.919580;,
    1.403453;0.919615;,
    1.350680;0.955663;,
    0.248343;0.922626;,
    0.276604;0.893207;,
    0.276759;1.009007;,
    0.276759;1.009007;,
    0.248059;1.008911;,
    0.248343;0.922626;,
    0.153732;0.922639;,
    0.153217;1.008925;,
    0.248059;1.008911;,
    0.248059;1.008911;,
    0.248343;0.922626;,
    0.153732;0.922639;,
    0.276759;1.009007;,
    0.276604;0.893207;,
    0.248343;0.922626;,
    0.248343;0.922626;,
    0.248059;1.008911;,
    0.276759;1.009007;,
    0.895360;0.778574;,
    0.895267;0.710631;,
    1.098441;0.710632;,
    1.098441;0.710632;,
    1.097856;0.778545;,
    0.895360;0.778574;,
    0.528735;0.040439;,
    0.558640;0.040439;,
    0.558640;0.186738;,
    0.558640;0.186738;,
    0.528735;0.186738;,
    0.528735;0.040439;,
    0.538480;0.040439;,
    0.562036;0.040439;,
    0.562036;0.186738;,
    0.562036;0.186738;,
    0.538480;0.186738;,
    0.538480;0.040439;,
    0.527944;0.040439;,
    0.487756;0.040439;,
    0.487756;0.186738;,
    0.487756;0.186738;,
    0.527944;0.186738;,
    0.527944;0.040439;,
    1.097856;0.778545;,
    1.098441;0.710632;,
    0.895267;0.710631;,
    0.895267;0.710631;,
    0.895360;0.778574;,
    1.097856;0.778545;,
    0.665488;0.112095;,
    0.649751;0.112095;,
    0.649751;0.180862;,
    0.649751;0.180862;,
    0.665488;0.180862;,
    0.665488;0.112095;,
    0.704248;0.112095;,
    0.649751;0.112095;,
    0.649751;0.180862;,
    0.649751;0.180862;,
    0.704248;0.180880;,
    0.704248;0.112095;,
    0.665488;0.112095;,
    0.649751;0.112095;,
    0.649751;0.180862;,
    0.649751;0.180862;,
    0.665488;0.180862;,
    0.665488;0.112095;,
    0.704248;0.112095;,
    0.649751;0.112095;,
    0.649751;0.180862;,
    0.649751;0.180862;,
    0.704248;0.180880;,
    0.704248;0.112095;,
    1.088479;0.208643;,
    1.088479;0.071679;,
    1.053888;0.080249;,
    1.053888;0.080249;,
    1.053952;0.208392;,
    1.088479;0.208643;,
    0.527944;0.040439;,
    0.562595;0.040439;,
    0.562595;0.186738;,
    0.562595;0.186738;,
    0.527944;0.186738;,
    0.527944;0.040439;,
    1.088480;0.208642;,
    1.088479;0.071679;,
    1.053888;0.080249;,
    1.053888;0.080249;,
    1.053952;0.208658;,
    1.088480;0.208642;,
    1.053888;0.080249;,
    1.088479;0.071679;,
    1.088480;0.208642;,
    1.088480;0.208642;,
    1.053952;0.208392;,
    1.053888;0.080249;;
   }
  }
 }
}