xof 0303txt 0032
template XSkinMeshHeader {
 <3cf169ce-ff7c-44ab-93c0-f78f62d172e2>
 WORD nMaxSkinWeightsPerVertex;
 WORD nMaxSkinWeightsPerFace;
 WORD nBones;
}

template VertexDuplicationIndices {
 <b8d65549-d7c9-4995-89cf-53a9a8b031e3>
 DWORD nIndices;
 DWORD nOriginalVertices;
 array DWORD indices[nIndices];
}

template SkinWeights {
 <6f0d123b-bad2-4167-a0d0-80224f25fabb>
 STRING transformNodeName;
 DWORD nWeights;
 array DWORD vertexIndices[nWeights];
 array FLOAT weights[nWeights];
 Matrix4x4 matrixOffset;
}

template FVFData {
 <b6e70a0e-8ef9-4e83-94ad-ecc8b0c04897>
 DWORD dwFVF;
 DWORD nDWords;
 array DWORD data[nDWords];
}

template EffectInstance {
 <e331f7e4-0559-4cc2-8e99-1cec1657928f>
 STRING EffectFilename;
 [...]
}

template EffectParamFloats {
 <3014b9a0-62f5-478c-9b86-e4ac9f4e418b>
 STRING ParamName;
 DWORD nFloats;
 array FLOAT Floats[nFloats];
}

template EffectParamString {
 <1dbc4c88-94c1-46ee-9076-2c28818c9481>
 STRING ParamName;
 STRING Value;
}

template EffectParamDWord {
 <e13963bc-ae51-4c5d-b00f-cfa3a9d97ce5>
 STRING ParamName;
 DWORD Value;
}


Material skyscrapers {
 1.000000;1.000000;1.000000;1.000000;;
 3.200000;
 0.000000;0.000000;0.000000;;
 0.000000;0.000000;0.000000;;

 TextureFilename {
  "Skyscrp.tga";
 }
}

Material buildz1 {
 1.000000;1.000000;1.000000;1.000000;;
 3.200000;
 0.000000;0.000000;0.000000;;
 0.000000;0.000000;0.000000;;

 TextureFilename {
  "buildz1.tga";
 }
}

Material buildz3 {
 1.000000;1.000000;1.000000;1.000000;;
 3.200000;
 0.000000;0.000000;0.000000;;
 0.000000;0.000000;0.000000;;

 TextureFilename {
  "buildz3.tga";
 }
}

Material buildz4 {
 1.000000;1.000000;1.000000;1.000000;;
 3.200000;
 0.000000;0.000000;0.000000;;
 0.000000;0.000000;0.000000;;

 TextureFilename {
  "buildz4.tga";
 }
}

Material buildz5 {
 1.000000;1.000000;1.000000;1.000000;;
 3.200000;
 0.000000;0.000000;0.000000;;
 0.000000;0.000000;0.000000;;

 TextureFilename {
  "buildz5.tga";
 }
}

Material buildz6 {
 1.000000;1.000000;1.000000;1.000000;;
 3.200000;
 0.000000;0.000000;0.000000;;
 0.000000;0.000000;0.000000;;

 TextureFilename {
  "buildz6.tga";
 }
}

Material buildz2 {
 1.000000;1.000000;1.000000;1.000000;;
 3.200000;
 0.000000;0.000000;0.000000;;
 0.000000;0.000000;0.000000;;

 TextureFilename {
  "buildz2.tga";
 }
}

Material roads {
 1.000000;1.000000;1.000000;1.000000;;
 3.200000;
 0.000000;0.000000;0.000000;;
 0.000000;0.000000;0.000000;;

 TextureFilename {
  "roads.tga";
 }
}

Material roads-2 {
 1.000000;1.000000;1.000000;1.000000;;
 3.200000;
 0.000000;0.000000;0.000000;;
 0.000000;0.000000;0.000000;;

 TextureFilename {
  "roads2.tga";
 }
}

Material tree-01 {
 1.000000;1.000000;1.000000;1.000000;;
 3.200000;
 0.000000;0.000000;0.000000;;
 0.000000;0.000000;0.000000;;

 TextureFilename {
  "trees-02.tga";
 }
}

Frame building-commercial_06 {
 

 FrameTransformMatrix {
  1.000000,0.000000,0.000000,0.000000,0.000000,-0.000000,-1.000000,0.000000,-0.000000,1.000000,-0.000000,0.000000,0.000000,-12.670539,12.491668,1.000000;;
 }

 Frame {
  

  FrameTransformMatrix {
   1.000000,-0.000000,0.000000,0.000000,-0.000000,1.000000,-0.000000,0.000000,0.000000,-0.000000,1.000000,0.000000,0.000000,-0.000000,0.000000,1.000000;;
  }

  Mesh  {
   372;
   -23.464220;-0.614268;15.575719;,
   -23.464224;12.010822;15.575719;,
   -23.464224;12.010822;4.099399;,
   -23.464224;12.010822;4.099399;,
   -23.464220;-0.614268;4.099399;,
   -23.464220;-0.614268;15.575719;,
   -7.877331;-0.614260;4.099399;,
   -0.000003;-0.614251;15.575719;,
   -14.735196;-0.614264;15.575719;,
   -14.735196;-0.614264;15.575719;,
   -14.735196;-0.614264;4.099399;,
   -7.877331;-0.614260;4.099399;,
   -23.464216;-12.016667;15.575719;,
   -23.464216;-12.016667;4.138474;,
   -14.735191;-12.016664;4.138474;,
   -14.735191;-12.016664;4.138474;,
   -14.735191;-12.016664;15.575719;,
   -23.464216;-12.016667;15.575719;,
   -23.464224;12.010822;15.575719;,
   -23.464220;-0.614268;15.575719;,
   -14.735196;-0.614264;15.575719;,
   -14.735196;-0.614264;15.575719;,
   -14.735580;12.022300;15.575719;,
   -23.464224;12.010822;15.575719;,
   -23.464224;12.010822;4.099399;,
   -23.464224;12.010822;15.575719;,
   -14.735580;12.022300;15.575719;,
   -14.735580;12.022300;15.575719;,
   -14.735580;12.022300;4.099399;,
   -23.464224;12.010822;4.099399;,
   -14.735191;-12.016664;15.575719;,
   -14.735191;-12.016664;4.138474;,
   -14.735196;-0.614264;4.099399;,
   -14.735196;-0.614264;4.099399;,
   -14.735196;-0.614264;15.575719;,
   -14.735191;-12.016664;15.575719;,
   -23.464216;-12.016667;15.575719;,
   -14.735191;-12.016664;15.575719;,
   -14.735196;-0.614264;15.575719;,
   -14.735196;-0.614264;15.575719;,
   -23.464220;-0.614268;15.575719;,
   -23.464216;-12.016667;15.575719;,
   -23.464216;-12.016667;4.138474;,
   -23.464216;-12.016667;15.575719;,
   -23.464220;-0.614268;15.575719;,
   -23.464220;-0.614268;15.575719;,
   -23.464220;-0.614268;4.099399;,
   -23.464216;-12.016667;4.138474;,
   -7.864037;12.022302;4.099399;,
   -7.877331;-0.614260;4.099399;,
   -14.735196;-0.614264;4.099399;,
   -14.735196;-0.614264;4.099399;,
   -14.735580;12.022300;4.099399;,
   -7.864037;12.022302;4.099399;,
   -23.464224;12.005145;0.000005;,
   -23.464220;-0.619946;0.000005;,
   -23.464220;-0.614268;4.099399;,
   -23.464220;-0.614268;4.099399;,
   -23.464224;12.010822;4.099399;,
   -23.464224;12.005145;0.000005;,
   -14.735202;12.005150;0.000005;,
   -23.464224;12.005145;0.000005;,
   -23.464224;12.010822;4.099399;,
   -23.464224;12.010822;4.099399;,
   -14.735580;12.022300;4.099399;,
   -14.735202;12.005150;0.000005;,
   -14.735196;-0.619942;0.000005;,
   -14.735202;12.005150;0.000005;,
   -14.735580;12.022300;4.099399;,
   -14.735580;12.022300;4.099399;,
   -14.735196;-0.614264;4.099399;,
   -14.735196;-0.619942;0.000005;,
   -14.735191;-12.022342;0.039080;,
   -14.735196;-0.619942;0.000005;,
   -14.735196;-0.614264;4.099399;,
   -14.735196;-0.614264;4.099399;,
   -14.735191;-12.016664;4.138474;,
   -14.735191;-12.022342;0.039080;,
   -23.464216;-12.022346;0.039080;,
   -14.735191;-12.022342;0.039080;,
   -14.735191;-12.016664;4.138474;,
   -14.735191;-12.016664;4.138474;,
   -23.464216;-12.016667;4.138474;,
   -23.464216;-12.022346;0.039080;,
   -23.464220;-0.619946;0.000005;,
   -23.464216;-12.022346;0.039080;,
   -23.464216;-12.016667;4.138474;,
   -23.464216;-12.016667;4.138474;,
   -23.464220;-0.614268;4.099399;,
   -23.464220;-0.619946;0.000005;,
   -7.877331;-0.614260;4.099399;,
   -7.864037;12.022302;4.099399;,
   -7.877337;12.010829;0.000000;,
   -7.877337;12.010829;0.000000;,
   -7.877331;-0.614260;0.000000;,
   -7.877331;-0.614260;4.099399;,
   -0.000003;-0.614251;0.000000;,
   -0.000003;-0.614251;4.099399;,
   -7.877331;-0.614260;4.099399;,
   -7.877331;-0.614260;4.099399;,
   -7.877331;-0.614260;0.000000;,
   -0.000003;-0.614251;0.000000;,
   -8.768975;5.768680;17.223707;,
   -8.768976;4.022875;17.223707;,
   -4.240611;4.022878;17.223707;,
   -4.240611;4.022878;17.223707;,
   -4.240611;5.768682;17.223707;,
   -8.768975;5.768680;17.223707;,
   -4.240611;5.768682;17.223707;,
   -4.240611;4.022878;17.223707;,
   -4.240611;4.022878;15.477902;,
   -4.240611;4.022878;15.477902;,
   -4.240611;5.768682;15.477902;,
   -4.240611;5.768682;17.223707;,
   -8.768975;5.768680;17.223707;,
   -4.240611;5.768682;17.223707;,
   -4.240611;5.768682;15.477902;,
   -4.240611;5.768682;15.477902;,
   -8.768975;5.768680;15.477902;,
   -8.768975;5.768680;17.223707;,
   -8.768976;4.022875;17.223707;,
   -8.768975;5.768680;17.223707;,
   -8.768975;5.768680;15.477902;,
   -8.768975;5.768680;15.477902;,
   -8.768976;4.022875;15.477902;,
   -8.768976;4.022875;17.223707;,
   -4.240611;4.022878;17.223707;,
   -8.768976;4.022875;17.223707;,
   -8.768976;4.022875;15.477902;,
   -8.768976;4.022875;15.477902;,
   -4.240611;4.022878;15.477902;,
   -4.240611;4.022878;17.223707;,
   -18.865387;-7.202933;17.223707;,
   -18.865387;-8.948738;17.223707;,
   -17.119583;-8.948737;17.223707;,
   -17.119583;-8.948737;17.223707;,
   -17.119583;-7.202933;17.223707;,
   -18.865387;-7.202933;17.223707;,
   -17.119583;-7.202933;17.223707;,
   -17.119583;-8.948737;17.223707;,
   -17.119583;-8.948737;15.477902;,
   -17.119583;-8.948737;15.477902;,
   -17.119583;-7.202933;15.477902;,
   -17.119583;-7.202933;17.223707;,
   -18.865387;-7.202933;17.223707;,
   -17.119583;-7.202933;17.223707;,
   -17.119583;-7.202933;15.477902;,
   -17.119583;-7.202933;15.477902;,
   -18.865387;-7.202933;15.477902;,
   -18.865387;-7.202933;17.223707;,
   -18.865387;-8.948738;17.223707;,
   -18.865387;-7.202933;17.223707;,
   -18.865387;-7.202933;15.477902;,
   -18.865387;-7.202933;15.477902;,
   -18.865387;-8.948738;15.477902;,
   -18.865387;-8.948738;17.223707;,
   -17.119583;-8.948737;17.223707;,
   -18.865387;-8.948738;17.223707;,
   -18.865387;-8.948738;15.477902;,
   -18.865387;-8.948738;15.477902;,
   -17.119583;-8.948737;15.477902;,
   -17.119583;-8.948737;17.223707;,
   -14.735580;12.022300;15.575719;,
   -14.735196;-0.614264;15.575719;,
   -0.000003;-0.614251;15.575719;,
   -0.000003;-0.614251;15.575719;,
   -0.000016;12.022313;15.575719;,
   -14.735580;12.022300;15.575719;,
   -7.877337;12.010829;0.000000;,
   -7.864037;12.022302;4.099399;,
   -0.000016;12.022313;4.099399;,
   -0.000016;12.022313;4.099399;,
   -0.000016;12.010839;0.000000;,
   -7.877337;12.010829;0.000000;,
   -0.000003;-0.614251;15.575719;,
   -7.877331;-0.614260;4.099399;,
   -0.000003;-0.614251;4.099399;,
   -7.864037;12.022302;4.099399;,
   -14.735580;12.022300;15.575719;,
   -0.000016;12.022313;15.575719;,
   -14.735580;12.022300;15.575719;,
   -7.864037;12.022302;4.099399;,
   -14.735580;12.022300;4.099399;,
   -0.000016;12.022313;15.575719;,
   -0.000016;12.022313;4.099399;,
   -7.864037;12.022302;4.099399;,
   23.464212;-0.614211;15.575719;,
   23.464197;12.010880;4.099399;,
   23.464197;12.010880;15.575719;,
   23.464197;12.010880;4.099399;,
   23.464212;-0.614211;15.575719;,
   23.464212;-0.614211;4.099399;,
   7.877323;-0.614233;4.099399;,
   14.735190;-0.614223;15.575719;,
   -0.000003;-0.614251;15.575719;,
   14.735190;-0.614223;15.575719;,
   7.877323;-0.614233;4.099399;,
   14.735190;-0.614223;4.099399;,
   23.464228;-12.016611;15.575719;,
   14.735205;-12.016623;4.138474;,
   23.464228;-12.016611;4.138474;,
   14.735205;-12.016623;4.138474;,
   23.464228;-12.016611;15.575719;,
   14.735205;-12.016623;15.575719;,
   23.464197;12.010880;15.575719;,
   14.735190;-0.614223;15.575719;,
   23.464212;-0.614211;15.575719;,
   14.735190;-0.614223;15.575719;,
   23.464197;12.010880;15.575719;,
   14.735552;12.022340;15.575719;,
   23.464197;12.010880;4.099399;,
   14.735552;12.022340;15.575719;,
   23.464197;12.010880;15.575719;,
   14.735552;12.022340;15.575719;,
   23.464197;12.010880;4.099399;,
   14.735552;12.022340;4.099399;,
   14.735205;-12.016623;15.575719;,
   14.735190;-0.614223;4.099399;,
   14.735205;-12.016623;4.138474;,
   14.735190;-0.614223;4.099399;,
   14.735205;-12.016623;15.575719;,
   14.735190;-0.614223;15.575719;,
   23.464228;-12.016611;15.575719;,
   14.735190;-0.614223;15.575719;,
   14.735205;-12.016623;15.575719;,
   14.735190;-0.614223;15.575719;,
   23.464228;-12.016611;15.575719;,
   23.464212;-0.614211;15.575719;,
   23.464228;-12.016611;4.138474;,
   23.464212;-0.614211;15.575719;,
   23.464228;-12.016611;15.575719;,
   23.464212;-0.614211;15.575719;,
   23.464228;-12.016611;4.138474;,
   23.464212;-0.614211;4.099399;,
   7.864003;12.022330;4.099399;,
   14.735190;-0.614223;4.099399;,
   7.877323;-0.614233;4.099399;,
   14.735190;-0.614223;4.099399;,
   7.864003;12.022330;4.099399;,
   14.735552;12.022340;4.099399;,
   23.464197;12.005201;0.000005;,
   23.464212;-0.614211;4.099399;,
   23.464212;-0.619889;0.000005;,
   23.464212;-0.614211;4.099399;,
   23.464197;12.005201;0.000005;,
   23.464197;12.010880;4.099399;,
   14.735172;12.005189;0.000005;,
   23.464197;12.010880;4.099399;,
   23.464197;12.005201;0.000005;,
   23.464197;12.010880;4.099399;,
   14.735172;12.005189;0.000005;,
   14.735552;12.022340;4.099399;,
   14.735190;-0.619901;0.000005;,
   14.735552;12.022340;4.099399;,
   14.735172;12.005189;0.000005;,
   14.735552;12.022340;4.099399;,
   14.735190;-0.619901;0.000005;,
   14.735190;-0.614223;4.099399;,
   14.735205;-12.022303;0.039080;,
   14.735190;-0.614223;4.099399;,
   14.735190;-0.619901;0.000005;,
   14.735190;-0.614223;4.099399;,
   14.735205;-12.022303;0.039080;,
   14.735205;-12.016623;4.138474;,
   23.464228;-12.022289;0.039080;,
   14.735205;-12.016623;4.138474;,
   14.735205;-12.022303;0.039080;,
   14.735205;-12.016623;4.138474;,
   23.464228;-12.022289;0.039080;,
   23.464228;-12.016611;4.138474;,
   23.464212;-0.619889;0.000005;,
   23.464228;-12.016611;4.138474;,
   23.464228;-12.022289;0.039080;,
   23.464228;-12.016611;4.138474;,
   23.464212;-0.619889;0.000005;,
   23.464212;-0.614211;4.099399;,
   7.877323;-0.614233;4.099399;,
   7.877304;12.010858;0.000000;,
   7.864003;12.022330;4.099399;,
   7.877304;12.010858;0.000000;,
   7.877323;-0.614233;4.099399;,
   7.877323;-0.614233;0.000000;,
   -0.000003;-0.614251;0.000000;,
   7.877323;-0.614233;4.099399;,
   -0.000003;-0.614251;4.099399;,
   7.877323;-0.614233;4.099399;,
   -0.000003;-0.614251;0.000000;,
   7.877323;-0.614233;0.000000;,
   8.879708;2.631336;17.223707;,
   7.133898;7.160286;17.223707;,
   7.133903;2.631332;17.223707;,
   7.133898;7.160286;17.223707;,
   8.879708;2.631336;17.223707;,
   8.879703;7.160289;17.223707;,
   8.879703;7.160289;17.223707;,
   7.133898;7.160286;15.477902;,
   7.133898;7.160286;17.223707;,
   7.133898;7.160286;15.477902;,
   8.879703;7.160289;17.223707;,
   8.879703;7.160289;15.477902;,
   8.879708;2.631336;17.223707;,
   8.879703;7.160289;15.477902;,
   8.879703;7.160289;17.223707;,
   8.879703;7.160289;15.477902;,
   8.879708;2.631336;17.223707;,
   8.879708;2.631336;15.477902;,
   7.133903;2.631332;17.223707;,
   8.879708;2.631336;15.477902;,
   8.879708;2.631336;17.223707;,
   8.879708;2.631336;15.477902;,
   7.133903;2.631332;17.223707;,
   7.133903;2.631332;15.477902;,
   7.133898;7.160286;17.223707;,
   7.133903;2.631332;15.477902;,
   7.133903;2.631332;17.223707;,
   7.133903;2.631332;15.477902;,
   7.133898;7.160286;17.223707;,
   7.133898;7.160286;15.477902;,
   18.865396;-7.202885;17.223707;,
   17.119593;-8.948690;17.223707;,
   18.865396;-8.948689;17.223707;,
   17.119593;-8.948690;17.223707;,
   18.865396;-7.202885;17.223707;,
   17.119591;-7.202886;17.223707;,
   17.119591;-7.202886;17.223707;,
   17.119593;-8.948690;15.477902;,
   17.119593;-8.948690;17.223707;,
   17.119593;-8.948690;15.477902;,
   17.119591;-7.202886;17.223707;,
   17.119591;-7.202886;15.477902;,
   18.865396;-7.202885;17.223707;,
   17.119591;-7.202886;15.477902;,
   17.119591;-7.202886;17.223707;,
   17.119591;-7.202886;15.477902;,
   18.865396;-7.202885;17.223707;,
   18.865396;-7.202885;15.477902;,
   18.865396;-8.948689;17.223707;,
   18.865396;-7.202885;15.477902;,
   18.865396;-7.202885;17.223707;,
   18.865396;-7.202885;15.477902;,
   18.865396;-8.948689;17.223707;,
   18.865396;-8.948689;15.477902;,
   17.119593;-8.948690;17.223707;,
   18.865396;-8.948689;15.477902;,
   18.865396;-8.948689;17.223707;,
   18.865396;-8.948689;15.477902;,
   17.119593;-8.948690;17.223707;,
   17.119593;-8.948690;15.477902;,
   14.735552;12.022340;15.575719;,
   -0.000003;-0.614251;15.575719;,
   14.735190;-0.614223;15.575719;,
   -0.000003;-0.614251;15.575719;,
   14.735552;12.022340;15.575719;,
   -0.000016;12.022313;15.575719;,
   7.877304;12.010858;0.000000;,
   -0.000016;12.022313;4.099399;,
   7.864003;12.022330;4.099399;,
   -0.000016;12.022313;4.099399;,
   7.877304;12.010858;0.000000;,
   -0.000016;12.010839;0.000000;,
   -0.000003;-0.614251;15.575719;,
   -0.000003;-0.614251;4.099399;,
   7.877323;-0.614233;4.099399;,
   14.735552;12.022340;4.099399;,
   7.864003;12.022330;4.099399;,
   14.735552;12.022340;15.575719;,
   -0.000016;12.022313;15.575719;,
   14.735552;12.022340;15.575719;,
   7.864003;12.022330;4.099399;,
   -0.000016;12.022313;15.575719;,
   7.864003;12.022330;4.099399;,
   -0.000016;12.022313;4.099399;;
   124;
   3;0,1,2;,
   3;3,4,5;,
   3;6,7,8;,
   3;9,10,11;,
   3;12,13,14;,
   3;15,16,17;,
   3;18,19,20;,
   3;21,22,23;,
   3;24,25,26;,
   3;27,28,29;,
   3;30,31,32;,
   3;33,34,35;,
   3;36,37,38;,
   3;39,40,41;,
   3;42,43,44;,
   3;45,46,47;,
   3;48,49,50;,
   3;51,52,53;,
   3;54,55,56;,
   3;57,58,59;,
   3;60,61,62;,
   3;63,64,65;,
   3;66,67,68;,
   3;69,70,71;,
   3;72,73,74;,
   3;75,76,77;,
   3;78,79,80;,
   3;81,82,83;,
   3;84,85,86;,
   3;87,88,89;,
   3;90,91,92;,
   3;93,94,95;,
   3;96,97,98;,
   3;99,100,101;,
   3;102,103,104;,
   3;105,106,107;,
   3;108,109,110;,
   3;111,112,113;,
   3;114,115,116;,
   3;117,118,119;,
   3;120,121,122;,
   3;123,124,125;,
   3;126,127,128;,
   3;129,130,131;,
   3;132,133,134;,
   3;135,136,137;,
   3;138,139,140;,
   3;141,142,143;,
   3;144,145,146;,
   3;147,148,149;,
   3;150,151,152;,
   3;153,154,155;,
   3;156,157,158;,
   3;159,160,161;,
   3;162,163,164;,
   3;165,166,167;,
   3;168,169,170;,
   3;171,172,173;,
   3;174,175,176;,
   3;177,178,179;,
   3;180,181,182;,
   3;183,184,185;,
   3;186,187,188;,
   3;189,190,191;,
   3;192,193,194;,
   3;195,196,197;,
   3;198,199,200;,
   3;201,202,203;,
   3;204,205,206;,
   3;207,208,209;,
   3;210,211,212;,
   3;213,214,215;,
   3;216,217,218;,
   3;219,220,221;,
   3;222,223,224;,
   3;225,226,227;,
   3;228,229,230;,
   3;231,232,233;,
   3;234,235,236;,
   3;237,238,239;,
   3;240,241,242;,
   3;243,244,245;,
   3;246,247,248;,
   3;249,250,251;,
   3;252,253,254;,
   3;255,256,257;,
   3;258,259,260;,
   3;261,262,263;,
   3;264,265,266;,
   3;267,268,269;,
   3;270,271,272;,
   3;273,274,275;,
   3;276,277,278;,
   3;279,280,281;,
   3;282,283,284;,
   3;285,286,287;,
   3;288,289,290;,
   3;291,292,293;,
   3;294,295,296;,
   3;297,298,299;,
   3;300,301,302;,
   3;303,304,305;,
   3;306,307,308;,
   3;309,310,311;,
   3;312,313,314;,
   3;315,316,317;,
   3;318,319,320;,
   3;321,322,323;,
   3;324,325,326;,
   3;327,328,329;,
   3;330,331,332;,
   3;333,334,335;,
   3;336,337,338;,
   3;339,340,341;,
   3;342,343,344;,
   3;345,346,347;,
   3;348,349,350;,
   3;351,352,353;,
   3;354,355,356;,
   3;357,358,359;,
   3;360,361,362;,
   3;363,364,365;,
   3;366,367,368;,
   3;369,370,371;;

   MeshNormals  {
    372;
    -1.000000;-0.000000;0.000000;,
    -1.000000;-0.000000;0.000000;,
    -1.000000;-0.000000;0.000000;,
    -1.000000;-0.000000;0.000000;,
    -1.000000;-0.000000;0.000000;,
    -1.000000;-0.000000;0.000000;,
    0.000001;-1.000000;0.000000;,
    0.000002;-1.000000;0.000000;,
    0.000001;-1.000000;0.000000;,
    0.000001;-1.000000;0.000000;,
    0.000001;-1.000000;0.000000;,
    0.000001;-1.000000;0.000000;,
    0.000000;-1.000000;0.000000;,
    0.000000;-1.000000;0.000000;,
    0.000000;-1.000000;0.000000;,
    0.000000;-1.000000;0.000000;,
    0.000000;-1.000000;0.000000;,
    0.000000;-1.000000;0.000000;,
    0.000000;0.000000;1.000000;,
    0.000000;0.000000;1.000000;,
    0.000000;0.000000;1.000000;,
    0.000000;0.000000;1.000000;,
    0.000000;0.000000;1.000000;,
    0.000000;0.000000;1.000000;,
    -0.001315;0.999999;0.000000;,
    -0.001315;0.999999;0.000000;,
    -0.001315;0.999999;0.000000;,
    -0.001315;0.999999;0.000000;,
    -0.001315;0.999999;0.000000;,
    -0.001315;0.999999;0.000000;,
    1.000000;0.000000;0.000000;,
    1.000000;0.000000;0.000000;,
    1.000000;0.000000;0.000000;,
    1.000000;0.000000;0.000000;,
    1.000000;0.000000;0.000000;,
    1.000000;0.000000;0.000000;,
    0.000000;0.000000;1.000000;,
    0.000000;0.000000;1.000000;,
    0.000000;0.000000;1.000000;,
    0.000000;0.000000;1.000000;,
    0.000000;0.000000;1.000000;,
    0.000000;0.000000;1.000000;,
    -1.000000;-0.000000;0.000000;,
    -1.000000;-0.000000;0.000000;,
    -1.000000;-0.000000;0.000000;,
    -1.000000;-0.000000;0.000000;,
    -1.000000;-0.000000;0.000000;,
    -1.000000;-0.000000;0.000000;,
    0.000000;0.000000;-1.000000;,
    0.000000;0.000000;-1.000000;,
    0.000000;0.000000;-1.000000;,
    0.000000;0.000000;-1.000000;,
    0.000000;0.000000;-1.000000;,
    0.000000;0.000000;-1.000000;,
    -1.000000;-0.000000;0.000000;,
    -1.000000;-0.000000;0.000000;,
    -1.000000;-0.000000;0.000000;,
    -1.000000;-0.000000;0.000000;,
    -1.000000;-0.000000;0.000000;,
    -1.000000;-0.000000;0.000000;,
    -0.000001;0.999999;-0.001385;,
    -0.000001;0.999999;-0.001385;,
    -0.000001;0.999999;-0.001385;,
    -0.001315;0.999990;-0.004184;,
    -0.001315;0.999990;-0.004184;,
    -0.001315;0.999990;-0.004184;,
    1.000000;0.000000;0.000092;,
    1.000000;0.000000;0.000092;,
    1.000000;0.000000;0.000092;,
    1.000000;0.000030;-0.000000;,
    1.000000;0.000030;-0.000000;,
    1.000000;0.000030;-0.000000;,
    1.000000;0.000000;-0.000000;,
    1.000000;0.000000;-0.000000;,
    1.000000;0.000000;-0.000000;,
    1.000000;0.000000;-0.000000;,
    1.000000;0.000000;-0.000000;,
    1.000000;0.000000;-0.000000;,
    0.000001;-0.999999;0.001385;,
    0.000001;-0.999999;0.001385;,
    0.000001;-0.999999;0.001385;,
    0.000000;-0.999999;0.001385;,
    0.000000;-0.999999;0.001385;,
    0.000000;-0.999999;0.001385;,
    -1.000000;-0.000000;0.000000;,
    -1.000000;-0.000000;0.000000;,
    -1.000000;-0.000000;0.000000;,
    -1.000000;-0.000000;0.000000;,
    -1.000000;-0.000000;0.000000;,
    -1.000000;-0.000000;0.000000;,
    -1.000000;0.000210;0.000648;,
    -0.999994;0.001052;0.003242;,
    -0.999996;0.000842;0.002595;,
    -0.999996;0.000842;0.002595;,
    -1.000000;-0.000000;0.000000;,
    -1.000000;0.000210;0.000648;,
    0.000002;-1.000000;0.000000;,
    0.000002;-1.000000;0.000000;,
    0.000001;-1.000000;0.000000;,
    0.000001;-1.000000;0.000000;,
    0.000001;-1.000000;0.000000;,
    0.000002;-1.000000;0.000000;,
    0.000000;0.000000;1.000000;,
    0.000000;0.000000;1.000000;,
    0.000000;0.000000;1.000000;,
    0.000000;0.000000;1.000000;,
    0.000000;0.000000;1.000000;,
    0.000000;0.000000;1.000000;,
    1.000000;-0.000000;0.000000;,
    1.000000;-0.000000;0.000000;,
    1.000000;-0.000000;0.000000;,
    1.000000;-0.000000;0.000000;,
    1.000000;-0.000000;0.000000;,
    1.000000;-0.000000;0.000000;,
    -0.000001;1.000000;0.000000;,
    -0.000001;1.000000;0.000000;,
    -0.000001;1.000000;0.000000;,
    -0.000001;1.000000;0.000000;,
    -0.000001;1.000000;0.000000;,
    -0.000001;1.000000;0.000000;,
    -1.000000;0.000001;0.000000;,
    -1.000000;0.000001;0.000000;,
    -1.000000;0.000001;0.000000;,
    -1.000000;0.000001;0.000000;,
    -1.000000;0.000001;0.000000;,
    -1.000000;0.000001;0.000000;,
    0.000001;-1.000000;0.000000;,
    0.000001;-1.000000;0.000000;,
    0.000001;-1.000000;0.000000;,
    0.000001;-1.000000;0.000000;,
    0.000001;-1.000000;0.000000;,
    0.000001;-1.000000;0.000000;,
    0.000000;0.000000;1.000000;,
    0.000000;0.000000;1.000000;,
    0.000000;0.000000;1.000000;,
    0.000000;0.000000;1.000000;,
    0.000000;0.000000;1.000000;,
    0.000000;0.000000;1.000000;,
    1.000000;0.000000;0.000000;,
    1.000000;0.000000;0.000000;,
    1.000000;0.000000;0.000000;,
    1.000000;0.000000;0.000000;,
    1.000000;0.000000;0.000000;,
    1.000000;0.000000;0.000000;,
    0.000000;1.000000;0.000000;,
    0.000000;1.000000;0.000000;,
    0.000000;1.000000;0.000000;,
    0.000000;1.000000;0.000000;,
    0.000000;1.000000;0.000000;,
    0.000000;1.000000;0.000000;,
    -1.000000;0.000000;0.000000;,
    -1.000000;0.000000;0.000000;,
    -1.000000;0.000000;0.000000;,
    -1.000000;0.000000;0.000000;,
    -1.000000;0.000000;0.000000;,
    -1.000000;0.000000;0.000000;,
    0.000001;-1.000000;0.000000;,
    0.000001;-1.000000;0.000000;,
    0.000001;-1.000000;0.000000;,
    0.000001;-1.000000;0.000000;,
    0.000001;-1.000000;0.000000;,
    0.000001;-1.000000;0.000000;,
    0.000000;0.000000;1.000000;,
    0.000000;0.000000;1.000000;,
    0.000000;0.000000;1.000000;,
    0.000000;0.000000;1.000000;,
    0.000000;0.000000;1.000000;,
    0.000000;0.000000;1.000000;,
    -0.000001;0.999996;-0.002799;,
    -0.000001;0.999996;-0.002799;,
    -0.000002;0.999996;-0.002799;,
    -0.000002;0.999996;-0.002799;,
    -0.000002;0.999996;-0.002799;,
    -0.000001;0.999996;-0.002799;,
    0.000002;-1.000000;0.000000;,
    0.000001;-1.000000;0.000000;,
    0.000002;-1.000000;0.000000;,
    -0.000001;1.000000;-0.000000;,
    -0.000001;1.000000;-0.000000;,
    -0.000001;1.000000;-0.000000;,
    -0.000000;1.000000;0.000000;,
    -0.000000;1.000000;0.000000;,
    -0.000000;1.000000;0.000000;,
    -0.000001;1.000000;0.000000;,
    -0.000001;1.000000;0.000000;,
    -0.000001;1.000000;0.000000;,
    1.000000;0.000001;0.000000;,
    1.000000;0.000001;0.000000;,
    1.000000;0.000001;0.000000;,
    1.000000;0.000001;0.000000;,
    1.000000;0.000001;0.000000;,
    1.000000;0.000001;0.000000;,
    0.000002;-1.000000;-0.000000;,
    0.000002;-1.000000;-0.000000;,
    0.000002;-1.000000;0.000000;,
    0.000002;-1.000000;-0.000000;,
    0.000002;-1.000000;-0.000000;,
    0.000001;-1.000000;0.000000;,
    0.000001;-1.000000;0.000000;,
    0.000001;-1.000000;0.000000;,
    0.000001;-1.000000;0.000000;,
    0.000001;-1.000000;0.000000;,
    0.000001;-1.000000;0.000000;,
    0.000001;-1.000000;0.000000;,
    0.000000;0.000000;1.000000;,
    0.000000;0.000000;1.000000;,
    0.000000;0.000000;1.000000;,
    0.000000;0.000000;1.000000;,
    0.000000;0.000000;1.000000;,
    0.000000;0.000000;1.000000;,
    0.001313;0.999999;0.000000;,
    0.001313;0.999999;0.000000;,
    0.001313;0.999999;0.000000;,
    0.001313;0.999999;0.000000;,
    0.001313;0.999999;0.000000;,
    0.001313;0.999999;0.000000;,
    -1.000000;-0.000001;0.000000;,
    -1.000000;-0.000001;0.000000;,
    -1.000000;-0.000001;0.000000;,
    -1.000000;-0.000001;0.000000;,
    -1.000000;-0.000001;0.000000;,
    -1.000000;-0.000001;0.000000;,
    0.000000;0.000000;1.000000;,
    0.000000;0.000000;1.000000;,
    0.000000;0.000000;1.000000;,
    0.000000;0.000000;1.000000;,
    0.000000;0.000000;1.000000;,
    0.000000;0.000000;1.000000;,
    1.000000;0.000001;0.000000;,
    1.000000;0.000001;0.000000;,
    1.000000;0.000001;0.000000;,
    1.000000;0.000001;0.000000;,
    1.000000;0.000001;0.000000;,
    1.000000;0.000001;0.000000;,
    0.000000;0.000000;-1.000000;,
    0.000000;0.000000;-1.000000;,
    0.000000;0.000000;-1.000000;,
    0.000000;0.000000;-1.000000;,
    0.000000;0.000000;-1.000000;,
    0.000000;0.000000;-1.000000;,
    1.000000;0.000001;-0.000000;,
    1.000000;0.000001;-0.000000;,
    1.000000;0.000001;-0.000000;,
    1.000000;0.000001;-0.000000;,
    1.000000;0.000001;-0.000000;,
    1.000000;0.000001;-0.000000;,
    -0.000001;0.999999;-0.001385;,
    -0.000001;0.999999;-0.001385;,
    -0.000001;0.999999;-0.001385;,
    0.001313;0.999990;-0.004184;,
    0.001313;0.999990;-0.004184;,
    0.001313;0.999990;-0.004184;,
    -1.000000;-0.000001;0.000093;,
    -1.000000;-0.000001;0.000093;,
    -1.000000;-0.000001;0.000093;,
    -1.000000;0.000029;-0.000000;,
    -1.000000;0.000029;-0.000000;,
    -1.000000;0.000029;-0.000000;,
    -1.000000;-0.000001;0.000000;,
    -1.000000;-0.000001;0.000000;,
    -1.000000;-0.000001;0.000000;,
    -1.000000;-0.000001;0.000000;,
    -1.000000;-0.000001;0.000000;,
    -1.000000;-0.000001;0.000000;,
    0.000002;-0.999999;0.001385;,
    0.000002;-0.999999;0.001385;,
    0.000002;-0.999999;0.001385;,
    0.000001;-0.999999;0.001385;,
    0.000001;-0.999999;0.001385;,
    0.000001;-0.999999;0.001385;,
    1.000000;0.000001;-0.000000;,
    1.000000;0.000001;-0.000000;,
    1.000000;0.000001;-0.000000;,
    1.000000;0.000001;-0.000000;,
    1.000000;0.000001;-0.000000;,
    1.000000;0.000001;-0.000000;,
    1.000000;0.000212;0.000648;,
    0.999996;0.000844;0.002595;,
    0.999994;0.001054;0.003242;,
    0.999996;0.000844;0.002595;,
    1.000000;0.000212;0.000648;,
    1.000000;0.000002;0.000000;,
    0.000002;-1.000000;0.000000;,
    0.000002;-1.000000;-0.000000;,
    0.000002;-1.000000;0.000000;,
    0.000002;-1.000000;-0.000000;,
    0.000002;-1.000000;0.000000;,
    0.000002;-1.000000;0.000000;,
    0.000000;0.000000;1.000000;,
    0.000000;0.000000;1.000000;,
    0.000000;0.000000;1.000000;,
    0.000000;0.000000;1.000000;,
    0.000000;0.000000;1.000000;,
    0.000000;0.000000;1.000000;,
    -0.000002;1.000000;0.000000;,
    -0.000002;1.000000;0.000000;,
    -0.000002;1.000000;0.000000;,
    -0.000002;1.000000;0.000000;,
    -0.000002;1.000000;0.000000;,
    -0.000002;1.000000;0.000000;,
    1.000000;0.000001;0.000000;,
    1.000000;0.000001;0.000000;,
    1.000000;0.000001;0.000000;,
    1.000000;0.000001;0.000000;,
    1.000000;0.000001;0.000000;,
    1.000000;0.000001;0.000000;,
    0.000002;-1.000000;0.000000;,
    0.000002;-1.000000;0.000000;,
    0.000002;-1.000000;0.000000;,
    0.000002;-1.000000;0.000000;,
    0.000002;-1.000000;0.000000;,
    0.000002;-1.000000;0.000000;,
    -1.000000;-0.000001;0.000000;,
    -1.000000;-0.000001;0.000000;,
    -1.000000;-0.000001;0.000000;,
    -1.000000;-0.000001;0.000000;,
    -1.000000;-0.000001;0.000000;,
    -1.000000;-0.000001;0.000000;,
    0.000000;0.000000;1.000000;,
    0.000000;0.000000;1.000000;,
    0.000000;0.000000;1.000000;,
    0.000000;0.000000;1.000000;,
    0.000000;0.000000;1.000000;,
    0.000000;0.000000;1.000000;,
    -1.000000;-0.000001;0.000000;,
    -1.000000;-0.000001;0.000000;,
    -1.000000;-0.000001;0.000000;,
    -1.000000;-0.000001;0.000000;,
    -1.000000;-0.000001;0.000000;,
    -1.000000;-0.000001;0.000000;,
    -0.000001;1.000000;0.000000;,
    -0.000001;1.000000;0.000000;,
    -0.000001;1.000000;0.000000;,
    -0.000001;1.000000;0.000000;,
    -0.000001;1.000000;0.000000;,
    -0.000001;1.000000;0.000000;,
    1.000000;0.000000;0.000000;,
    1.000000;0.000000;0.000000;,
    1.000000;0.000000;0.000000;,
    1.000000;0.000000;0.000000;,
    1.000000;0.000000;0.000000;,
    1.000000;0.000000;0.000000;,
    0.000001;-1.000000;0.000000;,
    0.000001;-1.000000;0.000000;,
    0.000001;-1.000000;0.000000;,
    0.000001;-1.000000;0.000000;,
    0.000001;-1.000000;0.000000;,
    0.000001;-1.000000;0.000000;,
    0.000000;0.000000;1.000000;,
    0.000000;0.000000;1.000000;,
    0.000000;0.000000;1.000000;,
    0.000000;0.000000;1.000000;,
    0.000000;0.000000;1.000000;,
    0.000000;0.000000;1.000000;,
    -0.000002;0.999996;-0.002799;,
    -0.000002;0.999996;-0.002799;,
    -0.000002;0.999996;-0.002799;,
    -0.000002;0.999996;-0.002799;,
    -0.000002;0.999996;-0.002799;,
    -0.000002;0.999996;-0.002799;,
    0.000002;-1.000000;0.000000;,
    0.000002;-1.000000;0.000000;,
    0.000002;-1.000000;-0.000000;,
    -0.000001;1.000000;0.000000;,
    -0.000001;1.000000;0.000000;,
    -0.000001;1.000000;0.000000;,
    -0.000002;1.000000;0.000000;,
    -0.000002;1.000000;0.000000;,
    -0.000002;1.000000;0.000000;,
    -0.000002;1.000000;0.000000;,
    -0.000002;1.000000;0.000000;,
    -0.000002;1.000000;0.000000;;
    124;
    3;0,1,2;,
    3;3,4,5;,
    3;6,7,8;,
    3;9,10,11;,
    3;12,13,14;,
    3;15,16,17;,
    3;18,19,20;,
    3;21,22,23;,
    3;24,25,26;,
    3;27,28,29;,
    3;30,31,32;,
    3;33,34,35;,
    3;36,37,38;,
    3;39,40,41;,
    3;42,43,44;,
    3;45,46,47;,
    3;48,49,50;,
    3;51,52,53;,
    3;54,55,56;,
    3;57,58,59;,
    3;60,61,62;,
    3;63,64,65;,
    3;66,67,68;,
    3;69,70,71;,
    3;72,73,74;,
    3;75,76,77;,
    3;78,79,80;,
    3;81,82,83;,
    3;84,85,86;,
    3;87,88,89;,
    3;90,91,92;,
    3;93,94,95;,
    3;96,97,98;,
    3;99,100,101;,
    3;102,103,104;,
    3;105,106,107;,
    3;108,109,110;,
    3;111,112,113;,
    3;114,115,116;,
    3;117,118,119;,
    3;120,121,122;,
    3;123,124,125;,
    3;126,127,128;,
    3;129,130,131;,
    3;132,133,134;,
    3;135,136,137;,
    3;138,139,140;,
    3;141,142,143;,
    3;144,145,146;,
    3;147,148,149;,
    3;150,151,152;,
    3;153,154,155;,
    3;156,157,158;,
    3;159,160,161;,
    3;162,163,164;,
    3;165,166,167;,
    3;168,169,170;,
    3;171,172,173;,
    3;174,175,176;,
    3;177,178,179;,
    3;180,181,182;,
    3;183,184,185;,
    3;186,187,188;,
    3;189,190,191;,
    3;192,193,194;,
    3;195,196,197;,
    3;198,199,200;,
    3;201,202,203;,
    3;204,205,206;,
    3;207,208,209;,
    3;210,211,212;,
    3;213,214,215;,
    3;216,217,218;,
    3;219,220,221;,
    3;222,223,224;,
    3;225,226,227;,
    3;228,229,230;,
    3;231,232,233;,
    3;234,235,236;,
    3;237,238,239;,
    3;240,241,242;,
    3;243,244,245;,
    3;246,247,248;,
    3;249,250,251;,
    3;252,253,254;,
    3;255,256,257;,
    3;258,259,260;,
    3;261,262,263;,
    3;264,265,266;,
    3;267,268,269;,
    3;270,271,272;,
    3;273,274,275;,
    3;276,277,278;,
    3;279,280,281;,
    3;282,283,284;,
    3;285,286,287;,
    3;288,289,290;,
    3;291,292,293;,
    3;294,295,296;,
    3;297,298,299;,
    3;300,301,302;,
    3;303,304,305;,
    3;306,307,308;,
    3;309,310,311;,
    3;312,313,314;,
    3;315,316,317;,
    3;318,319,320;,
    3;321,322,323;,
    3;324,325,326;,
    3;327,328,329;,
    3;330,331,332;,
    3;333,334,335;,
    3;336,337,338;,
    3;339,340,341;,
    3;342,343,344;,
    3;345,346,347;,
    3;348,349,350;,
    3;351,352,353;,
    3;354,355,356;,
    3;357,358,359;,
    3;360,361,362;,
    3;363,364,365;,
    3;366,367,368;,
    3;369,370,371;;
   }

   MeshMaterialList  {
    1;
    124;
    0,
    0,
    0,
    0,
    0,
    0,
    0,
    0,
    0,
    0,
    0,
    0,
    0,
    0,
    0,
    0,
    0,
    0,
    0,
    0,
    0,
    0,
    0,
    0,
    0,
    0,
    0,
    0,
    0,
    0,
    0,
    0,
    0,
    0,
    0,
    0,
    0,
    0,
    0,
    0,
    0,
    0,
    0,
    0,
    0,
    0,
    0,
    0,
    0,
    0,
    0,
    0,
    0,
    0,
    0,
    0,
    0,
    0,
    0,
    0,
    0,
    0,
    0,
    0,
    0,
    0,
    0,
    0,
    0,
    0,
    0,
    0,
    0,
    0,
    0,
    0,
    0,
    0,
    0,
    0,
    0,
    0,
    0,
    0,
    0,
    0,
    0,
    0,
    0,
    0,
    0,
    0,
    0,
    0,
    0,
    0,
    0,
    0,
    0,
    0,
    0,
    0,
    0,
    0,
    0,
    0,
    0,
    0,
    0,
    0,
    0,
    0,
    0,
    0,
    0,
    0,
    0,
    0,
    0,
    0,
    0,
    0,
    0,
    0;
    { skyscrapers }
   }

   MeshTextureCoords  {
    372;
    0.176353;0.455072;,
    0.320017;0.454994;,
    0.320017;0.625523;,
    0.320017;0.625523;,
    0.176353;0.625520;,
    0.176353;0.455072;,
    0.252888;0.625918;,
    0.341322;0.455126;,
    0.175524;0.455126;,
    0.175524;0.455126;,
    0.175524;0.625918;,
    0.252888;0.625918;,
    0.320017;0.454994;,
    0.320017;0.625523;,
    0.176353;0.625520;,
    0.176353;0.625520;,
    0.176353;0.455072;,
    0.320017;0.454994;,
    0.824562;0.973318;,
    0.824562;0.886457;,
    0.763598;0.886457;,
    0.763598;0.886457;,
    0.763598;0.973318;,
    0.824562;0.973318;,
    0.320017;0.625523;,
    0.320017;0.454994;,
    0.176353;0.455072;,
    0.176353;0.455072;,
    0.176353;0.625520;,
    0.320017;0.625523;,
    0.176353;0.455072;,
    0.176353;0.625520;,
    0.320017;0.625523;,
    0.320017;0.625523;,
    0.320017;0.454994;,
    0.176353;0.455072;,
    0.824562;0.795841;,
    0.763598;0.795841;,
    0.763598;0.886457;,
    0.763598;0.886457;,
    0.824562;0.886457;,
    0.824562;0.795841;,
    0.320017;0.625523;,
    0.320017;0.454994;,
    0.176353;0.455072;,
    0.176353;0.455072;,
    0.176353;0.625520;,
    0.320017;0.625523;,
    0.901054;0.945487;,
    0.901105;0.844011;,
    0.864156;0.844011;,
    0.864156;0.844011;,
    0.864156;0.945487;,
    0.901054;0.945487;,
    0.638056;0.998405;,
    0.406195;0.998405;,
    0.406187;0.923982;,
    0.406187;0.923982;,
    0.638057;0.923982;,
    0.638056;0.998405;,
    0.446740;0.998426;,
    0.638087;0.998426;,
    0.638087;0.923957;,
    0.638087;0.923957;,
    0.446740;0.923957;,
    0.446740;0.998426;,
    0.651732;0.998408;,
    0.938901;0.998408;,
    0.938902;0.923979;,
    0.938902;0.923979;,
    0.651727;0.923979;,
    0.651732;0.998408;,
    0.409619;0.998380;,
    0.651732;0.998408;,
    0.651727;0.923979;,
    0.651727;0.923979;,
    0.409617;0.924015;,
    0.409619;0.998380;,
    0.446732;0.998441;,
    0.638077;0.998441;,
    0.638077;0.923937;,
    0.638077;0.923937;,
    0.446732;0.923937;,
    0.446732;0.998441;,
    0.406195;0.998405;,
    0.199086;0.998377;,
    0.199083;0.924018;,
    0.199083;0.924018;,
    0.406187;0.923982;,
    0.406195;0.998405;,
    0.728263;0.924025;,
    0.441177;0.924025;,
    0.441177;0.998356;,
    0.441177;0.998356;,
    0.728263;0.998356;,
    0.728263;0.924025;,
    0.304237;0.998356;,
    0.304237;0.924025;,
    0.159275;0.924025;,
    0.159275;0.924025;,
    0.159275;0.998356;,
    0.304237;0.998356;,
    0.842216;0.728045;,
    0.842216;0.735593;,
    0.854755;0.735593;,
    0.854755;0.735593;,
    0.854755;0.728045;,
    0.842216;0.728045;,
    0.864173;0.748016;,
    0.864173;0.760588;,
    0.879123;0.760588;,
    0.879123;0.760588;,
    0.879123;0.748016;,
    0.864173;0.748016;,
    0.923235;0.975037;,
    0.923235;0.987609;,
    0.938186;0.987609;,
    0.938186;0.987609;,
    0.938186;0.975037;,
    0.923235;0.975037;,
    0.864173;0.748016;,
    0.864173;0.760588;,
    0.879123;0.760588;,
    0.879123;0.760588;,
    0.879123;0.748016;,
    0.864173;0.748016;,
    0.864173;0.748016;,
    0.864173;0.760588;,
    0.879123;0.760588;,
    0.879123;0.760588;,
    0.879123;0.748016;,
    0.864173;0.748016;,
    0.847753;0.733582;,
    0.847753;0.741130;,
    0.860292;0.741130;,
    0.860292;0.741130;,
    0.860292;0.733582;,
    0.847753;0.733582;,
    0.869710;0.753553;,
    0.869710;0.766125;,
    0.884661;0.766125;,
    0.884661;0.766125;,
    0.884661;0.753553;,
    0.869710;0.753553;,
    0.869710;0.753553;,
    0.869710;0.766125;,
    0.884661;0.766125;,
    0.884661;0.766125;,
    0.884661;0.753553;,
    0.869710;0.753553;,
    0.869710;0.753553;,
    0.869710;0.766125;,
    0.884661;0.766125;,
    0.884661;0.766125;,
    0.884661;0.753553;,
    0.869710;0.753553;,
    0.729437;0.749861;,
    0.729437;0.762433;,
    0.744387;0.762433;,
    0.744387;0.762433;,
    0.744387;0.749861;,
    0.729437;0.749861;,
    0.763598;0.973318;,
    0.763598;0.886457;,
    0.674992;0.886457;,
    0.674992;0.886457;,
    0.674992;0.973318;,
    0.763598;0.973318;,
    0.667982;0.998356;,
    0.667982;0.924025;,
    0.463958;0.924025;,
    0.463958;0.924025;,
    0.463958;0.998356;,
    0.667982;0.998356;,
    0.341322;0.455126;,
    0.252888;0.625918;,
    0.341322;0.625918;,
    0.253068;0.625522;,
    0.320017;0.454994;,
    0.176353;0.455072;,
    0.320017;0.454994;,
    0.253068;0.625522;,
    0.320017;0.625523;,
    0.176353;0.455072;,
    0.176353;0.625520;,
    0.253068;0.625522;,
    0.176353;0.455072;,
    0.320017;0.625523;,
    0.320017;0.454994;,
    0.320017;0.625523;,
    0.176353;0.455072;,
    0.176353;0.625520;,
    0.252888;0.625918;,
    0.175524;0.455126;,
    0.341322;0.455126;,
    0.175524;0.455126;,
    0.252888;0.625918;,
    0.175524;0.625918;,
    0.320017;0.454994;,
    0.176353;0.625520;,
    0.320017;0.625523;,
    0.176353;0.625520;,
    0.320017;0.454994;,
    0.176353;0.455072;,
    0.824562;0.973318;,
    0.763598;0.886457;,
    0.824562;0.886457;,
    0.763598;0.886457;,
    0.824562;0.973318;,
    0.763598;0.973318;,
    0.320017;0.625523;,
    0.176353;0.455072;,
    0.320017;0.454994;,
    0.176353;0.455072;,
    0.320017;0.625523;,
    0.176353;0.625520;,
    0.176353;0.455072;,
    0.320017;0.625523;,
    0.176353;0.625520;,
    0.320017;0.625523;,
    0.176353;0.455072;,
    0.320017;0.454994;,
    0.824562;0.795841;,
    0.763598;0.886457;,
    0.763598;0.795841;,
    0.763598;0.886457;,
    0.824562;0.795841;,
    0.824562;0.886457;,
    0.320017;0.625523;,
    0.176353;0.455072;,
    0.320017;0.454994;,
    0.176353;0.455072;,
    0.320017;0.625523;,
    0.176353;0.625520;,
    0.901054;0.945487;,
    0.864156;0.844011;,
    0.901105;0.844011;,
    0.864156;0.844011;,
    0.901054;0.945487;,
    0.864156;0.945487;,
    0.638056;0.998405;,
    0.406187;0.923982;,
    0.406195;0.998405;,
    0.406187;0.923982;,
    0.638056;0.998405;,
    0.638057;0.923982;,
    0.446740;0.998426;,
    0.638087;0.923957;,
    0.638087;0.998426;,
    0.638087;0.923957;,
    0.446740;0.998426;,
    0.446740;0.923957;,
    0.651732;0.998408;,
    0.938902;0.923979;,
    0.938901;0.998408;,
    0.938902;0.923979;,
    0.651732;0.998408;,
    0.651727;0.923979;,
    0.409619;0.998380;,
    0.651727;0.923979;,
    0.651732;0.998408;,
    0.651727;0.923979;,
    0.409619;0.998380;,
    0.409617;0.924015;,
    0.446732;0.998441;,
    0.638077;0.923937;,
    0.638077;0.998441;,
    0.638077;0.923937;,
    0.446732;0.998441;,
    0.446732;0.923937;,
    0.406195;0.998405;,
    0.188009;0.924018;,
    0.188012;0.998377;,
    0.188009;0.924018;,
    0.406195;0.998405;,
    0.406187;0.923982;,
    0.728263;0.924025;,
    0.441177;0.998356;,
    0.441177;0.924025;,
    0.441177;0.998356;,
    0.728263;0.924025;,
    0.728263;0.998356;,
    0.304237;0.998356;,
    0.159275;0.924025;,
    0.304237;0.924025;,
    0.159275;0.924025;,
    0.304237;0.998356;,
    0.159275;0.998356;,
    0.842216;0.728045;,
    0.854755;0.735593;,
    0.842216;0.735593;,
    0.854755;0.735593;,
    0.842216;0.728045;,
    0.854755;0.728045;,
    0.864173;0.748016;,
    0.879123;0.760588;,
    0.864173;0.760588;,
    0.879123;0.760588;,
    0.864173;0.748016;,
    0.879123;0.748016;,
    0.866019;0.729559;,
    0.880969;0.777199;,
    0.866019;0.777199;,
    0.880969;0.777199;,
    0.866019;0.729559;,
    0.880969;0.729559;,
    0.864173;0.748016;,
    0.879123;0.760588;,
    0.864173;0.760588;,
    0.879123;0.760588;,
    0.864173;0.748016;,
    0.879123;0.748016;,
    0.864173;0.748016;,
    0.879123;0.760588;,
    0.864173;0.760588;,
    0.879123;0.760588;,
    0.864173;0.748016;,
    0.879123;0.748016;,
    0.847753;0.733582;,
    0.860292;0.741130;,
    0.847753;0.741130;,
    0.860292;0.741130;,
    0.847753;0.733582;,
    0.860292;0.733582;,
    0.869710;0.753553;,
    0.884661;0.766125;,
    0.869710;0.766125;,
    0.884661;0.766125;,
    0.869710;0.753553;,
    0.884661;0.753553;,
    0.869710;0.753553;,
    0.884661;0.766125;,
    0.869710;0.766125;,
    0.884661;0.766125;,
    0.869710;0.753553;,
    0.884661;0.753553;,
    0.869710;0.753553;,
    0.884661;0.766125;,
    0.869710;0.766125;,
    0.884661;0.766125;,
    0.869710;0.753553;,
    0.884661;0.753553;,
    0.729437;0.749861;,
    0.744387;0.762433;,
    0.729437;0.762433;,
    0.744387;0.762433;,
    0.729437;0.749861;,
    0.744387;0.749861;,
    0.763598;0.973318;,
    0.674992;0.886457;,
    0.763598;0.886457;,
    0.674992;0.886457;,
    0.763598;0.973318;,
    0.674992;0.973318;,
    0.667982;0.998356;,
    0.463958;0.924025;,
    0.667982;0.924025;,
    0.463958;0.924025;,
    0.667982;0.998356;,
    0.463958;0.998356;,
    0.341322;0.455126;,
    0.341322;0.625918;,
    0.252888;0.625918;,
    0.320017;0.625523;,
    0.253068;0.625522;,
    0.320017;0.454994;,
    0.176353;0.455072;,
    0.320017;0.454994;,
    0.253068;0.625522;,
    0.176353;0.455072;,
    0.253068;0.625522;,
    0.176353;0.625520;;
   }
  }
 }
}