xof 0303txt 0032
template XSkinMeshHeader {
 <3cf169ce-ff7c-44ab-93c0-f78f62d172e2>
 WORD nMaxSkinWeightsPerVertex;
 WORD nMaxSkinWeightsPerFace;
 WORD nBones;
}

template VertexDuplicationIndices {
 <b8d65549-d7c9-4995-89cf-53a9a8b031e3>
 DWORD nIndices;
 DWORD nOriginalVertices;
 array DWORD indices[nIndices];
}

template SkinWeights {
 <6f0d123b-bad2-4167-a0d0-80224f25fabb>
 STRING transformNodeName;
 DWORD nWeights;
 array DWORD vertexIndices[nWeights];
 array FLOAT weights[nWeights];
 Matrix4x4 matrixOffset;
}

template FVFData {
 <b6e70a0e-8ef9-4e83-94ad-ecc8b0c04897>
 DWORD dwFVF;
 DWORD nDWords;
 array DWORD data[nDWords];
}

template EffectInstance {
 <e331f7e4-0559-4cc2-8e99-1cec1657928f>
 STRING EffectFilename;
 [...]
}

template EffectParamFloats {
 <3014b9a0-62f5-478c-9b86-e4ac9f4e418b>
 STRING ParamName;
 DWORD nFloats;
 array FLOAT Floats[nFloats];
}

template EffectParamString {
 <1dbc4c88-94c1-46ee-9076-2c28818c9481>
 STRING ParamName;
 STRING Value;
}

template EffectParamDWord {
 <e13963bc-ae51-4c5d-b00f-cfa3a9d97ce5>
 STRING ParamName;
 DWORD Value;
}


Material skyscrapers {
 1.000000;1.000000;1.000000;1.000000;;
 3.200000;
 0.000000;0.000000;0.000000;;
 0.000000;0.000000;0.000000;;

 TextureFilename {
  "Skyscrp.tga";
 }
}

Material buildz1 {
 1.000000;1.000000;1.000000;1.000000;;
 3.200000;
 0.000000;0.000000;0.000000;;
 0.000000;0.000000;0.000000;;

 TextureFilename {
  "buildz1.tga";
 }
}

Material buildz3 {
 1.000000;1.000000;1.000000;1.000000;;
 3.200000;
 0.000000;0.000000;0.000000;;
 0.000000;0.000000;0.000000;;

 TextureFilename {
  "buildz3.tga";
 }
}

Material buildz4 {
 1.000000;1.000000;1.000000;1.000000;;
 3.200000;
 0.000000;0.000000;0.000000;;
 0.000000;0.000000;0.000000;;

 TextureFilename {
  "buildz4.tga";
 }
}

Material buildz5 {
 1.000000;1.000000;1.000000;1.000000;;
 3.200000;
 0.000000;0.000000;0.000000;;
 0.000000;0.000000;0.000000;;

 TextureFilename {
  "buildz5.tga";
 }
}

Material buildz6 {
 1.000000;1.000000;1.000000;1.000000;;
 3.200000;
 0.000000;0.000000;0.000000;;
 0.000000;0.000000;0.000000;;

 TextureFilename {
  "buildz6.tga";
 }
}

Material buildz2 {
 1.000000;1.000000;1.000000;1.000000;;
 3.200000;
 0.000000;0.000000;0.000000;;
 0.000000;0.000000;0.000000;;

 TextureFilename {
  "buildz2.tga";
 }
}

Material roads {
 1.000000;1.000000;1.000000;1.000000;;
 3.200000;
 0.000000;0.000000;0.000000;;
 0.000000;0.000000;0.000000;;

 TextureFilename {
  "roads.tga";
 }
}

Material roads-2 {
 1.000000;1.000000;1.000000;1.000000;;
 3.200000;
 0.000000;0.000000;0.000000;;
 0.000000;0.000000;0.000000;;

 TextureFilename {
  "roads2.tga";
 }
}

Material tree-01 {
 1.000000;1.000000;1.000000;1.000000;;
 3.200000;
 0.000000;0.000000;0.000000;;
 0.000000;0.000000;0.000000;;

 TextureFilename {
  "trees-02.tga";
 }
}

Frame building-commercial_07 {
 

 FrameTransformMatrix {
  1.000000,0.000000,0.000000,0.000000,0.000000,-0.000000,-1.000000,0.000000,-0.000000,1.000000,-0.000000,0.000000,0.000000,-12.670539,12.491668,1.000000;;
 }

 Frame {
  

  FrameTransformMatrix {
   1.000000,-0.000000,0.000000,0.000000,-0.000000,1.000000,-0.000000,0.000000,0.000000,-0.000000,1.000000,0.000000,0.000000,-0.000000,0.000000,1.000000;;
  }

  Mesh  {
   252;
   -22.902699;-4.389297;11.130147;,
   -22.902695;4.383595;11.130147;,
   -22.902695;4.383595;4.001294;,
   -22.902695;4.383595;4.001294;,
   -22.902699;-4.389297;4.020364;,
   -22.902699;-4.389297;11.130147;,
   -7.688819;-4.352614;4.001294;,
   -0.000007;-4.352604;11.130146;,
   -14.382573;-4.389292;11.130147;,
   -14.382573;-4.389292;11.130147;,
   -14.382573;-4.389292;4.020364;,
   -7.688819;-4.352614;4.001294;,
   -22.902699;-4.389297;11.130147;,
   -22.902699;-4.389297;4.020364;,
   -14.382573;-4.389292;4.020364;,
   -14.382573;-4.389292;4.020364;,
   -14.382573;-4.389292;11.130147;,
   -22.902699;-4.389297;11.130147;,
   -22.902695;4.383595;11.130147;,
   -22.902699;-4.389297;11.130147;,
   -14.382573;-4.389292;11.130147;,
   -14.382573;-4.389292;11.130147;,
   -14.382939;4.394797;11.130147;,
   -22.902695;4.383595;11.130147;,
   -22.902695;4.383595;4.001294;,
   -22.902695;4.383595;11.130147;,
   -14.382939;4.394797;11.130147;,
   -14.382939;4.394797;11.130147;,
   -14.382939;4.394797;4.001294;,
   -22.902695;4.383595;4.001294;,
   -7.675840;4.394800;4.001294;,
   -7.688819;-4.352614;4.001294;,
   -14.382573;-4.389292;4.020364;,
   -14.382573;-4.389292;4.020364;,
   -14.382939;4.394797;4.001294;,
   -7.675840;4.394800;4.001294;,
   -22.902695;4.378052;0.000004;,
   -22.902699;-4.394840;0.019075;,
   -22.902699;-4.389297;4.020364;,
   -22.902699;-4.389297;4.020364;,
   -22.902695;4.383595;4.001294;,
   -22.902695;4.378052;0.000004;,
   -14.382568;4.378057;0.000004;,
   -22.902695;4.378052;0.000004;,
   -22.902695;4.383595;4.001294;,
   -22.902695;4.383595;4.001294;,
   -14.382939;4.394797;4.001294;,
   -14.382568;4.378057;0.000004;,
   -14.382573;-4.394835;0.019075;,
   -14.382568;4.378057;0.000004;,
   -14.382939;4.394797;4.001294;,
   -14.382939;4.394797;4.001294;,
   -14.382573;-4.389292;4.020364;,
   -14.382573;-4.394835;0.019075;,
   -22.902699;-4.394840;0.019075;,
   -14.382573;-4.394835;0.019075;,
   -14.382573;-4.389292;4.020364;,
   -14.382573;-4.389292;4.020364;,
   -22.902699;-4.389297;4.020364;,
   -22.902699;-4.394840;0.019075;,
   -7.688819;-4.352614;4.001294;,
   -7.675840;4.394800;4.001294;,
   -7.688822;4.383603;-0.000000;,
   -7.688822;4.383603;-0.000000;,
   -7.688819;-4.352614;-0.000000;,
   -7.688819;-4.352614;4.001294;,
   -0.000007;-4.352605;-0.000000;,
   -0.000007;-4.352605;4.001294;,
   -7.688819;-4.352614;4.001294;,
   -7.688819;-4.352614;4.001294;,
   -7.688819;-4.352614;-0.000000;,
   -0.000007;-4.352605;-0.000000;,
   -8.559126;0.978889;12.772467;,
   -8.559126;-0.725136;12.772467;,
   -4.139131;-0.725133;12.772467;,
   -4.139131;-0.725133;12.772467;,
   -4.139130;0.978893;12.772467;,
   -8.559126;0.978889;12.772467;,
   -4.139130;0.978893;12.772467;,
   -4.139131;-0.725133;12.772467;,
   -4.139131;-0.725133;11.068442;,
   -4.139131;-0.725133;11.068442;,
   -4.139130;0.978893;11.068442;,
   -4.139130;0.978893;12.772467;,
   -8.559126;0.978889;12.772467;,
   -4.139130;0.978893;12.772467;,
   -4.139130;0.978893;11.068442;,
   -4.139130;0.978893;11.068442;,
   -8.559126;0.978889;11.068442;,
   -8.559126;0.978889;12.772467;,
   -8.559126;-0.725136;12.772467;,
   -8.559126;0.978889;12.772467;,
   -8.559126;0.978889;11.068442;,
   -8.559126;0.978889;11.068442;,
   -8.559126;-0.725136;11.068442;,
   -8.559126;-0.725136;12.772467;,
   -4.139131;-0.725133;12.772467;,
   -8.559126;-0.725136;12.772467;,
   -8.559126;-0.725136;11.068442;,
   -8.559126;-0.725136;11.068442;,
   -4.139131;-0.725133;11.068442;,
   -4.139131;-0.725133;12.772467;,
   -14.382939;4.394797;11.130147;,
   -14.382573;-4.389292;11.130147;,
   -0.000007;-4.352604;11.130146;,
   -0.000007;-4.352604;11.130146;,
   -0.000016;4.394811;11.130147;,
   -14.382939;4.394797;11.130147;,
   -7.688822;4.383603;-0.000000;,
   -7.675840;4.394800;4.001294;,
   -0.000016;4.394810;4.001294;,
   -0.000016;4.394810;4.001294;,
   -0.000016;4.383611;-0.000000;,
   -7.688822;4.383603;-0.000000;,
   -0.000007;-4.352604;11.130146;,
   -7.688819;-4.352614;4.001294;,
   -0.000007;-4.352605;4.001294;,
   -7.675840;4.394800;4.001294;,
   -14.382939;4.394797;11.130147;,
   -0.000016;4.394811;11.130147;,
   -14.382939;4.394797;11.130147;,
   -7.675840;4.394800;4.001294;,
   -14.382939;4.394797;4.001294;,
   -0.000016;4.394811;11.130147;,
   -0.000016;4.394810;4.001294;,
   -7.675840;4.394800;4.001294;,
   22.902683;-4.389239;11.130147;,
   22.902668;4.383650;4.001294;,
   22.902668;4.383650;11.130147;,
   22.902668;4.383650;4.001294;,
   22.902683;-4.389239;11.130147;,
   22.902683;-4.389240;4.020364;,
   7.688807;-4.352589;4.001294;,
   14.382556;-4.389253;11.130147;,
   -0.000007;-4.352604;11.130146;,
   14.382556;-4.389253;11.130147;,
   7.688807;-4.352589;4.001294;,
   14.382556;-4.389253;4.020364;,
   22.902683;-4.389239;11.130147;,
   14.382556;-4.389253;4.020364;,
   22.902683;-4.389240;4.020364;,
   14.382556;-4.389253;4.020364;,
   22.902683;-4.389239;11.130147;,
   14.382556;-4.389253;11.130147;,
   22.902668;4.383650;11.130147;,
   14.382556;-4.389253;11.130147;,
   22.902683;-4.389239;11.130147;,
   14.382556;-4.389253;11.130147;,
   22.902668;4.383650;11.130147;,
   14.382911;4.394835;11.130147;,
   22.902668;4.383650;4.001294;,
   14.382911;4.394835;11.130147;,
   22.902668;4.383650;11.130147;,
   14.382911;4.394835;11.130147;,
   22.902668;4.383650;4.001294;,
   14.382911;4.394835;4.001294;,
   7.675808;4.394825;4.001294;,
   14.382556;-4.389253;4.020364;,
   7.688807;-4.352589;4.001294;,
   14.382556;-4.389253;4.020364;,
   7.675808;4.394825;4.001294;,
   14.382911;4.394835;4.001294;,
   22.902668;4.378108;0.000004;,
   22.902683;-4.389240;4.020364;,
   22.902683;-4.394783;0.019075;,
   22.902683;-4.389240;4.020364;,
   22.902668;4.378108;0.000004;,
   22.902668;4.383650;4.001294;,
   14.382542;4.378096;0.000004;,
   22.902668;4.383650;4.001294;,
   22.902668;4.378108;0.000004;,
   22.902668;4.383650;4.001294;,
   14.382542;4.378096;0.000004;,
   14.382911;4.394835;4.001294;,
   14.382556;-4.394796;0.019075;,
   14.382911;4.394835;4.001294;,
   14.382542;4.378096;0.000004;,
   14.382911;4.394835;4.001294;,
   14.382556;-4.394796;0.019075;,
   14.382556;-4.389253;4.020364;,
   22.902683;-4.394783;0.019075;,
   14.382556;-4.389253;4.020364;,
   14.382556;-4.394796;0.019075;,
   14.382556;-4.389253;4.020364;,
   22.902683;-4.394783;0.019075;,
   22.902683;-4.389240;4.020364;,
   7.688807;-4.352589;4.001294;,
   7.688790;4.383628;-0.000000;,
   7.675808;4.394825;4.001294;,
   7.688790;4.383628;-0.000000;,
   7.688807;-4.352589;4.001294;,
   7.688807;-4.352589;-0.000000;,
   -0.000007;-4.352605;-0.000000;,
   7.688807;-4.352589;4.001294;,
   -0.000007;-4.352605;4.001294;,
   7.688807;-4.352589;4.001294;,
   -0.000007;-4.352605;-0.000000;,
   7.688807;-4.352589;-0.000000;,
   8.667202;-2.083375;12.772467;,
   6.963171;2.337191;12.772467;,
   6.963176;-2.083378;12.772467;,
   6.963171;2.337191;12.772467;,
   8.667202;-2.083375;12.772467;,
   8.667196;2.337196;12.772467;,
   8.667196;2.337196;12.772467;,
   6.963171;2.337191;11.068442;,
   6.963171;2.337191;12.772467;,
   6.963171;2.337191;11.068442;,
   8.667196;2.337196;12.772467;,
   8.667196;2.337196;11.068442;,
   8.667202;-2.083375;12.772467;,
   8.667196;2.337196;11.068442;,
   8.667196;2.337196;12.772467;,
   8.667196;2.337196;11.068442;,
   8.667202;-2.083375;12.772467;,
   8.667202;-2.083375;11.068442;,
   6.963176;-2.083378;12.772467;,
   8.667202;-2.083375;11.068442;,
   8.667202;-2.083375;12.772467;,
   8.667202;-2.083375;11.068442;,
   6.963176;-2.083378;12.772467;,
   6.963176;-2.083378;11.068442;,
   6.963171;2.337191;12.772467;,
   6.963176;-2.083378;11.068442;,
   6.963176;-2.083378;12.772467;,
   6.963176;-2.083378;11.068442;,
   6.963171;2.337191;12.772467;,
   6.963171;2.337191;11.068442;,
   14.382911;4.394835;11.130147;,
   -0.000007;-4.352604;11.130146;,
   14.382556;-4.389253;11.130147;,
   -0.000007;-4.352604;11.130146;,
   14.382911;4.394835;11.130147;,
   -0.000016;4.394811;11.130147;,
   7.688790;4.383628;-0.000000;,
   -0.000016;4.394810;4.001294;,
   7.675808;4.394825;4.001294;,
   -0.000016;4.394810;4.001294;,
   7.688790;4.383628;-0.000000;,
   -0.000016;4.383611;-0.000000;,
   -0.000007;-4.352604;11.130146;,
   -0.000007;-4.352605;4.001294;,
   7.688807;-4.352589;4.001294;,
   14.382911;4.394835;4.001294;,
   7.675808;4.394825;4.001294;,
   14.382911;4.394835;11.130147;,
   -0.000016;4.394811;11.130147;,
   14.382911;4.394835;11.130147;,
   7.675808;4.394825;4.001294;,
   -0.000016;4.394811;11.130147;,
   7.675808;4.394825;4.001294;,
   -0.000016;4.394810;4.001294;;
   84;
   3;0,1,2;,
   3;3,4,5;,
   3;6,7,8;,
   3;9,10,11;,
   3;12,13,14;,
   3;15,16,17;,
   3;18,19,20;,
   3;21,22,23;,
   3;24,25,26;,
   3;27,28,29;,
   3;30,31,32;,
   3;33,34,35;,
   3;36,37,38;,
   3;39,40,41;,
   3;42,43,44;,
   3;45,46,47;,
   3;48,49,50;,
   3;51,52,53;,
   3;54,55,56;,
   3;57,58,59;,
   3;60,61,62;,
   3;63,64,65;,
   3;66,67,68;,
   3;69,70,71;,
   3;72,73,74;,
   3;75,76,77;,
   3;78,79,80;,
   3;81,82,83;,
   3;84,85,86;,
   3;87,88,89;,
   3;90,91,92;,
   3;93,94,95;,
   3;96,97,98;,
   3;99,100,101;,
   3;102,103,104;,
   3;105,106,107;,
   3;108,109,110;,
   3;111,112,113;,
   3;114,115,116;,
   3;117,118,119;,
   3;120,121,122;,
   3;123,124,125;,
   3;126,127,128;,
   3;129,130,131;,
   3;132,133,134;,
   3;135,136,137;,
   3;138,139,140;,
   3;141,142,143;,
   3;144,145,146;,
   3;147,148,149;,
   3;150,151,152;,
   3;153,154,155;,
   3;156,157,158;,
   3;159,160,161;,
   3;162,163,164;,
   3;165,166,167;,
   3;168,169,170;,
   3;171,172,173;,
   3;174,175,176;,
   3;177,178,179;,
   3;180,181,182;,
   3;183,184,185;,
   3;186,187,188;,
   3;189,190,191;,
   3;192,193,194;,
   3;195,196,197;,
   3;198,199,200;,
   3;201,202,203;,
   3;204,205,206;,
   3;207,208,209;,
   3;210,211,212;,
   3;213,214,215;,
   3;216,217,218;,
   3;219,220,221;,
   3;222,223,224;,
   3;225,226,227;,
   3;228,229,230;,
   3;231,232,233;,
   3;234,235,236;,
   3;237,238,239;,
   3;240,241,242;,
   3;243,244,245;,
   3;246,247,248;,
   3;249,250,251;;

   MeshNormals  {
    252;
    -1.000000;0.000000;0.000000;,
    -1.000000;0.000000;0.000000;,
    -1.000000;0.000000;0.000000;,
    -1.000000;0.000000;0.000000;,
    -1.000000;0.000000;0.000000;,
    -1.000000;0.000000;0.000000;,
    0.001802;-0.999998;-0.000921;,
    0.000002;-0.999999;-0.001309;,
    0.003956;-0.999991;-0.001430;,
    0.003956;-0.999991;-0.001430;,
    0.005479;-0.999985;0.000000;,
    0.001802;-0.999998;-0.000921;,
    0.000001;-1.000000;0.000000;,
    0.000001;-1.000000;0.000000;,
    0.000001;-1.000000;0.000000;,
    0.000001;-1.000000;0.000000;,
    0.000001;-1.000000;0.000000;,
    0.000001;-1.000000;0.000000;,
    0.000000;0.000000;1.000000;,
    0.000000;0.000000;1.000000;,
    0.000000;0.000000;1.000000;,
    0.000000;0.000000;1.000000;,
    0.000000;0.000000;1.000000;,
    0.000000;0.000000;1.000000;,
    -0.001315;0.999999;0.000000;,
    -0.001315;0.999999;0.000000;,
    -0.001315;0.999999;0.000000;,
    -0.001315;0.999999;0.000000;,
    -0.001315;0.999999;0.000000;,
    -0.001315;0.999999;0.000000;,
    -0.002849;0.000004;-0.999996;,
    -0.002849;0.000004;-0.999996;,
    -0.002849;0.000004;-0.999996;,
    0.000000;-0.002171;-0.999998;,
    0.000000;-0.002171;-0.999998;,
    0.000000;-0.002171;-0.999998;,
    -1.000000;0.000000;-0.000000;,
    -1.000000;0.000000;-0.000000;,
    -1.000000;0.000000;-0.000000;,
    -1.000000;0.000000;-0.000000;,
    -1.000000;0.000000;-0.000000;,
    -1.000000;0.000000;-0.000000;,
    -0.000001;0.999999;-0.001385;,
    -0.000001;0.999999;-0.001385;,
    -0.000001;0.999999;-0.001385;,
    -0.001315;0.999990;-0.004184;,
    -0.001315;0.999990;-0.004184;,
    -0.001315;0.999990;-0.004184;,
    1.000000;-0.000000;0.000093;,
    1.000000;-0.000000;0.000093;,
    1.000000;-0.000000;0.000093;,
    1.000000;0.000042;-0.000000;,
    1.000000;0.000042;-0.000000;,
    1.000000;0.000042;-0.000000;,
    0.000001;-0.999999;0.001385;,
    0.000001;-0.999999;0.001385;,
    0.000001;-0.999999;0.001385;,
    0.000001;-0.999999;0.001385;,
    0.000001;-0.999999;0.001385;,
    0.000001;-0.999999;0.001385;,
    -1.000000;0.000405;0.000886;,
    -0.999994;0.001484;0.003240;,
    -0.999997;0.001079;0.002356;,
    -0.999997;0.001079;0.002356;,
    -1.000000;-0.000000;0.000000;,
    -1.000000;0.000405;0.000886;,
    0.000002;-1.000000;0.000000;,
    0.000002;-1.000000;0.000000;,
    0.001802;-0.999998;-0.000921;,
    0.001802;-0.999998;-0.000921;,
    0.000001;-1.000000;0.000000;,
    0.000002;-1.000000;0.000000;,
    0.000000;0.000000;1.000000;,
    0.000000;0.000000;1.000000;,
    0.000000;0.000000;1.000000;,
    0.000000;0.000000;1.000000;,
    0.000000;0.000000;1.000000;,
    0.000000;0.000000;1.000000;,
    1.000000;-0.000001;0.000000;,
    1.000000;-0.000001;0.000000;,
    1.000000;-0.000001;0.000000;,
    1.000000;-0.000001;0.000000;,
    1.000000;-0.000001;0.000000;,
    1.000000;-0.000001;0.000000;,
    -0.000001;1.000000;0.000000;,
    -0.000001;1.000000;0.000000;,
    -0.000001;1.000000;0.000000;,
    -0.000001;1.000000;0.000000;,
    -0.000001;1.000000;0.000000;,
    -0.000001;1.000000;0.000000;,
    -1.000000;0.000000;0.000000;,
    -1.000000;0.000000;0.000000;,
    -1.000000;0.000000;0.000000;,
    -1.000000;0.000000;0.000000;,
    -1.000000;0.000000;0.000000;,
    -1.000000;0.000000;0.000000;,
    0.000001;-1.000000;0.000000;,
    0.000001;-1.000000;0.000000;,
    0.000001;-1.000000;0.000000;,
    0.000001;-1.000000;0.000000;,
    0.000001;-1.000000;0.000000;,
    0.000001;-1.000000;0.000000;,
    0.000000;-0.000000;1.000000;,
    0.000000;0.000000;1.000000;,
    0.000000;-0.000000;1.000000;,
    0.000000;-0.000000;1.000000;,
    0.000000;-0.000000;1.000000;,
    0.000000;-0.000000;1.000000;,
    -0.000001;0.999996;-0.002799;,
    -0.000001;0.999996;-0.002798;,
    -0.000002;0.999996;-0.002799;,
    -0.000002;0.999996;-0.002799;,
    -0.000002;0.999996;-0.002799;,
    -0.000001;0.999996;-0.002799;,
    0.000002;-0.999999;-0.001309;,
    0.001802;-0.999998;-0.000921;,
    0.000002;-1.000000;0.000000;,
    -0.000001;1.000000;-0.000000;,
    -0.000001;1.000000;-0.000000;,
    -0.000001;1.000000;-0.000000;,
    -0.000000;1.000000;0.000000;,
    -0.000000;1.000000;0.000000;,
    -0.000000;1.000000;0.000000;,
    -0.000001;1.000000;-0.000000;,
    -0.000001;1.000000;-0.000000;,
    -0.000001;1.000000;-0.000000;,
    1.000000;0.000002;-0.000000;,
    1.000000;0.000002;-0.000000;,
    1.000000;0.000002;0.000000;,
    1.000000;0.000002;-0.000000;,
    1.000000;0.000002;-0.000000;,
    1.000000;0.000002;-0.000000;,
    -0.001799;-0.999998;-0.000921;,
    -0.003954;-0.999991;-0.001430;,
    0.000002;-0.999999;-0.001309;,
    -0.003954;-0.999991;-0.001430;,
    -0.001799;-0.999998;-0.000921;,
    -0.005477;-0.999985;0.000000;,
    0.000002;-1.000000;0.000000;,
    0.000002;-1.000000;0.000000;,
    0.000002;-1.000000;0.000000;,
    0.000002;-1.000000;0.000000;,
    0.000002;-1.000000;0.000000;,
    0.000002;-1.000000;0.000000;,
    0.000000;0.000000;1.000000;,
    0.000000;0.000000;1.000000;,
    0.000000;0.000000;1.000000;,
    0.000000;0.000000;1.000000;,
    0.000000;0.000000;1.000000;,
    0.000000;0.000000;1.000000;,
    0.001313;0.999999;0.000000;,
    0.001313;0.999999;0.000000;,
    0.001313;0.999999;0.000000;,
    0.001313;0.999999;0.000000;,
    0.001313;0.999999;0.000000;,
    0.001313;0.999999;0.000000;,
    0.002849;0.000004;-0.999996;,
    0.002849;0.000004;-0.999996;,
    0.002849;0.000004;-0.999996;,
    0.000000;-0.002171;-0.999998;,
    0.000000;-0.002171;-0.999998;,
    0.000000;-0.002171;-0.999998;,
    1.000000;0.000002;-0.000000;,
    1.000000;0.000002;-0.000000;,
    1.000000;0.000002;-0.000000;,
    1.000000;0.000002;-0.000000;,
    1.000000;0.000002;-0.000000;,
    1.000000;0.000002;-0.000000;,
    -0.000001;0.999999;-0.001385;,
    -0.000001;0.999999;-0.001385;,
    -0.000001;0.999999;-0.001385;,
    0.001313;0.999990;-0.004184;,
    0.001313;0.999990;-0.004184;,
    0.001313;0.999990;-0.004184;,
    -1.000000;-0.000001;0.000092;,
    -1.000000;-0.000001;0.000092;,
    -1.000000;-0.000001;0.000092;,
    -1.000000;0.000040;-0.000000;,
    -1.000000;0.000040;-0.000000;,
    -1.000000;0.000040;-0.000000;,
    0.000002;-0.999999;0.001385;,
    0.000002;-0.999999;0.001385;,
    0.000002;-0.999999;0.001385;,
    0.000002;-0.999999;0.001385;,
    0.000002;-0.999999;0.001385;,
    0.000002;-0.999999;0.001385;,
    1.000000;0.000408;0.000886;,
    0.999997;0.001081;0.002356;,
    0.999994;0.001486;0.003240;,
    0.999997;0.001081;0.002356;,
    1.000000;0.000408;0.000886;,
    1.000000;0.000002;0.000000;,
    0.000002;-1.000000;0.000000;,
    -0.001799;-0.999998;-0.000921;,
    0.000002;-1.000000;0.000000;,
    -0.001799;-0.999998;-0.000921;,
    0.000002;-1.000000;0.000000;,
    0.000002;-1.000000;0.000000;,
    0.000000;0.000000;1.000000;,
    0.000000;0.000000;1.000000;,
    0.000000;0.000000;1.000000;,
    0.000000;0.000000;1.000000;,
    0.000000;0.000000;1.000000;,
    0.000000;0.000000;1.000000;,
    -0.000003;1.000000;0.000000;,
    -0.000003;1.000000;0.000000;,
    -0.000003;1.000000;0.000000;,
    -0.000003;1.000000;0.000000;,
    -0.000003;1.000000;0.000000;,
    -0.000003;1.000000;0.000000;,
    1.000000;0.000001;0.000000;,
    1.000000;0.000001;0.000000;,
    1.000000;0.000001;0.000000;,
    1.000000;0.000001;0.000000;,
    1.000000;0.000001;0.000000;,
    1.000000;0.000001;0.000000;,
    0.000002;-1.000000;0.000000;,
    0.000002;-1.000000;0.000000;,
    0.000002;-1.000000;0.000000;,
    0.000002;-1.000000;0.000000;,
    0.000002;-1.000000;0.000000;,
    0.000002;-1.000000;0.000000;,
    -1.000000;-0.000001;0.000000;,
    -1.000000;-0.000001;0.000000;,
    -1.000000;-0.000001;0.000000;,
    -1.000000;-0.000001;0.000000;,
    -1.000000;-0.000001;0.000000;,
    -1.000000;-0.000001;0.000000;,
    -0.000000;-0.000000;1.000000;,
    0.000000;-0.000000;1.000000;,
    -0.000000;0.000000;1.000000;,
    0.000000;-0.000000;1.000000;,
    -0.000000;-0.000000;1.000000;,
    0.000000;-0.000000;1.000000;,
    -0.000002;0.999996;-0.002798;,
    -0.000002;0.999996;-0.002799;,
    -0.000002;0.999996;-0.002798;,
    -0.000002;0.999996;-0.002799;,
    -0.000002;0.999996;-0.002798;,
    -0.000002;0.999996;-0.002799;,
    0.000002;-0.999999;-0.001309;,
    0.000002;-1.000000;0.000000;,
    -0.001799;-0.999998;-0.000921;,
    -0.000001;1.000000;0.000000;,
    -0.000001;1.000000;0.000000;,
    -0.000001;1.000000;0.000000;,
    -0.000002;1.000000;0.000000;,
    -0.000002;1.000000;0.000000;,
    -0.000002;1.000000;0.000000;,
    -0.000002;1.000000;-0.000000;,
    -0.000002;1.000000;-0.000000;,
    -0.000002;1.000000;-0.000000;;
    84;
    3;0,1,2;,
    3;3,4,5;,
    3;6,7,8;,
    3;9,10,11;,
    3;12,13,14;,
    3;15,16,17;,
    3;18,19,20;,
    3;21,22,23;,
    3;24,25,26;,
    3;27,28,29;,
    3;30,31,32;,
    3;33,34,35;,
    3;36,37,38;,
    3;39,40,41;,
    3;42,43,44;,
    3;45,46,47;,
    3;48,49,50;,
    3;51,52,53;,
    3;54,55,56;,
    3;57,58,59;,
    3;60,61,62;,
    3;63,64,65;,
    3;66,67,68;,
    3;69,70,71;,
    3;72,73,74;,
    3;75,76,77;,
    3;78,79,80;,
    3;81,82,83;,
    3;84,85,86;,
    3;87,88,89;,
    3;90,91,92;,
    3;93,94,95;,
    3;96,97,98;,
    3;99,100,101;,
    3;102,103,104;,
    3;105,106,107;,
    3;108,109,110;,
    3;111,112,113;,
    3;114,115,116;,
    3;117,118,119;,
    3;120,121,122;,
    3;123,124,125;,
    3;126,127,128;,
    3;129,130,131;,
    3;132,133,134;,
    3;135,136,137;,
    3;138,139,140;,
    3;141,142,143;,
    3;144,145,146;,
    3;147,148,149;,
    3;150,151,152;,
    3;153,154,155;,
    3;156,157,158;,
    3;159,160,161;,
    3;162,163,164;,
    3;165,166,167;,
    3;168,169,170;,
    3;171,172,173;,
    3;174,175,176;,
    3;177,178,179;,
    3;180,181,182;,
    3;183,184,185;,
    3;186,187,188;,
    3;189,190,191;,
    3;192,193,194;,
    3;195,196,197;,
    3;198,199,200;,
    3;201,202,203;,
    3;204,205,206;,
    3;207,208,209;,
    3;210,211,212;,
    3;213,214,215;,
    3;216,217,218;,
    3;219,220,221;,
    3;222,223,224;,
    3;225,226,227;,
    3;228,229,230;,
    3;231,232,233;,
    3;234,235,236;,
    3;237,238,239;,
    3;240,241,242;,
    3;243,244,245;,
    3;246,247,248;,
    3;249,250,251;;
   }

   MeshMaterialList  {
    1;
    84;
    0,
    0,
    0,
    0,
    0,
    0,
    0,
    0,
    0,
    0,
    0,
    0,
    0,
    0,
    0,
    0,
    0,
    0,
    0,
    0,
    0,
    0,
    0,
    0,
    0,
    0,
    0,
    0,
    0,
    0,
    0,
    0,
    0,
    0,
    0,
    0,
    0,
    0,
    0,
    0,
    0,
    0,
    0,
    0,
    0,
    0,
    0,
    0,
    0,
    0,
    0,
    0,
    0,
    0,
    0,
    0,
    0,
    0,
    0,
    0,
    0,
    0,
    0,
    0,
    0,
    0,
    0,
    0,
    0,
    0,
    0,
    0,
    0,
    0,
    0,
    0,
    0,
    0,
    0,
    0,
    0,
    0,
    0,
    0;
    { skyscrapers }
   }

   MeshTextureCoords  {
    252;
    0.176353;0.504906;,
    0.320017;0.504828;,
    0.320017;0.625523;,
    0.320017;0.625523;,
    0.176353;0.625520;,
    0.176353;0.504906;,
    0.252888;0.625918;,
    0.341322;0.504960;,
    0.175524;0.504960;,
    0.175524;0.504960;,
    0.175524;0.625918;,
    0.252888;0.625918;,
    0.320017;0.504828;,
    0.320017;0.625523;,
    0.176353;0.625520;,
    0.176353;0.625520;,
    0.176353;0.504906;,
    0.320017;0.504828;,
    0.824562;0.973318;,
    0.824562;0.886457;,
    0.763598;0.886457;,
    0.763598;0.886457;,
    0.763598;0.973318;,
    0.824562;0.973318;,
    0.320017;0.625523;,
    0.320017;0.504828;,
    0.176353;0.504906;,
    0.176353;0.504906;,
    0.176353;0.625520;,
    0.320017;0.625523;,
    0.901054;0.945487;,
    0.901105;0.844011;,
    0.864156;0.844011;,
    0.864156;0.844011;,
    0.864156;0.945487;,
    0.901054;0.945487;,
    0.638056;0.998405;,
    0.406195;0.998405;,
    0.406187;0.923982;,
    0.406187;0.923982;,
    0.638057;0.923982;,
    0.638056;0.998405;,
    0.446740;0.998426;,
    0.638087;0.998426;,
    0.638087;0.923957;,
    0.638087;0.923957;,
    0.446740;0.923957;,
    0.446740;0.998426;,
    0.651732;0.998408;,
    0.938901;0.998408;,
    0.938902;0.923979;,
    0.938902;0.923979;,
    0.651727;0.923979;,
    0.651732;0.998408;,
    0.446732;0.998441;,
    0.638077;0.998441;,
    0.638077;0.923937;,
    0.638077;0.923937;,
    0.446732;0.923937;,
    0.446732;0.998441;,
    0.728263;0.924025;,
    0.441177;0.924025;,
    0.441177;0.998356;,
    0.441177;0.998356;,
    0.728263;0.998356;,
    0.728263;0.924025;,
    0.304237;0.998356;,
    0.304237;0.924025;,
    0.159275;0.924025;,
    0.159275;0.924025;,
    0.159275;0.998356;,
    0.304237;0.998356;,
    0.842216;0.728045;,
    0.842216;0.735593;,
    0.854755;0.735593;,
    0.854755;0.735593;,
    0.854755;0.728045;,
    0.842216;0.728045;,
    0.864173;0.748016;,
    0.864173;0.760588;,
    0.879123;0.760588;,
    0.879123;0.760588;,
    0.879123;0.748016;,
    0.864173;0.748016;,
    0.923235;0.975037;,
    0.923235;0.987609;,
    0.938186;0.987609;,
    0.938186;0.987609;,
    0.938186;0.975037;,
    0.923235;0.975037;,
    0.864173;0.748016;,
    0.864173;0.760588;,
    0.879123;0.760588;,
    0.879123;0.760588;,
    0.879123;0.748016;,
    0.864173;0.748016;,
    0.864173;0.748016;,
    0.864173;0.760588;,
    0.879123;0.760588;,
    0.879123;0.760588;,
    0.879123;0.748016;,
    0.864173;0.748016;,
    0.763598;0.973318;,
    0.763598;0.886457;,
    0.674992;0.886457;,
    0.674992;0.886457;,
    0.674992;0.973318;,
    0.763598;0.973318;,
    0.667982;0.998356;,
    0.667982;0.924025;,
    0.463958;0.924025;,
    0.463958;0.924025;,
    0.463958;0.998356;,
    0.667982;0.998356;,
    0.341322;0.504960;,
    0.252888;0.625918;,
    0.341322;0.625918;,
    0.253068;0.625522;,
    0.320017;0.504828;,
    0.176353;0.504906;,
    0.320017;0.504828;,
    0.253068;0.625522;,
    0.320017;0.625523;,
    0.176353;0.504906;,
    0.176353;0.625520;,
    0.253068;0.625522;,
    0.176353;0.504906;,
    0.320017;0.625523;,
    0.320017;0.504828;,
    0.320017;0.625523;,
    0.176353;0.504906;,
    0.176353;0.625520;,
    0.252888;0.625918;,
    0.175524;0.504960;,
    0.341322;0.504960;,
    0.175524;0.504960;,
    0.252888;0.625918;,
    0.175524;0.625918;,
    0.320017;0.504828;,
    0.176353;0.625520;,
    0.320017;0.625523;,
    0.176353;0.625520;,
    0.320017;0.504828;,
    0.176353;0.504906;,
    0.824562;0.973318;,
    0.763598;0.886457;,
    0.824562;0.886457;,
    0.763598;0.886457;,
    0.824562;0.973318;,
    0.763598;0.973318;,
    0.320017;0.625523;,
    0.176353;0.504906;,
    0.320017;0.504828;,
    0.176353;0.504906;,
    0.320017;0.625523;,
    0.176353;0.625520;,
    0.901054;0.945487;,
    0.864156;0.844011;,
    0.901105;0.844011;,
    0.864156;0.844011;,
    0.901054;0.945487;,
    0.864156;0.945487;,
    0.638056;0.998405;,
    0.406187;0.923982;,
    0.406195;0.998405;,
    0.406187;0.923982;,
    0.638056;0.998405;,
    0.638057;0.923982;,
    0.446740;0.998426;,
    0.638087;0.923957;,
    0.638087;0.998426;,
    0.638087;0.923957;,
    0.446740;0.998426;,
    0.446740;0.923957;,
    0.651732;0.998408;,
    0.938902;0.923979;,
    0.938901;0.998408;,
    0.938902;0.923979;,
    0.651732;0.998408;,
    0.651727;0.923979;,
    0.446732;0.998441;,
    0.638077;0.923937;,
    0.638077;0.998441;,
    0.638077;0.923937;,
    0.446732;0.998441;,
    0.446732;0.923937;,
    0.728263;0.924025;,
    0.441177;0.998356;,
    0.441177;0.924025;,
    0.441177;0.998356;,
    0.728263;0.924025;,
    0.728263;0.998356;,
    0.304237;0.998356;,
    0.159275;0.924025;,
    0.304237;0.924025;,
    0.159275;0.924025;,
    0.304237;0.998356;,
    0.159275;0.998356;,
    0.842216;0.728045;,
    0.854755;0.735593;,
    0.842216;0.735593;,
    0.854755;0.735593;,
    0.842216;0.728045;,
    0.854755;0.728045;,
    0.864173;0.748016;,
    0.879123;0.760588;,
    0.864173;0.760588;,
    0.879123;0.760588;,
    0.864173;0.748016;,
    0.879123;0.748016;,
    0.866019;0.729559;,
    0.880969;0.777199;,
    0.866019;0.777199;,
    0.880969;0.777199;,
    0.866019;0.729559;,
    0.880969;0.729559;,
    0.864173;0.748016;,
    0.879123;0.760588;,
    0.864173;0.760588;,
    0.879123;0.760588;,
    0.864173;0.748016;,
    0.879123;0.748016;,
    0.864173;0.748016;,
    0.879123;0.760588;,
    0.864173;0.760588;,
    0.879123;0.760588;,
    0.864173;0.748016;,
    0.879123;0.748016;,
    0.763598;0.973318;,
    0.674992;0.886457;,
    0.763598;0.886457;,
    0.674992;0.886457;,
    0.763598;0.973318;,
    0.674992;0.973318;,
    0.667982;0.998356;,
    0.463958;0.924025;,
    0.667982;0.924025;,
    0.463958;0.924025;,
    0.667982;0.998356;,
    0.463958;0.998356;,
    0.341322;0.504960;,
    0.341322;0.625918;,
    0.252888;0.625918;,
    0.320017;0.625523;,
    0.253068;0.625522;,
    0.320017;0.504828;,
    0.176353;0.504906;,
    0.320017;0.504828;,
    0.253068;0.625522;,
    0.176353;0.504906;,
    0.253068;0.625522;,
    0.176353;0.625520;;
   }
  }
 }
}